xof 0303txt 0064
#Exported from Wings 3D 1.2
		Material cube1_auv {
			1.0; 1.0; 1.0; 1.0;;
		1.0;
			1.0; 1.0; 1.0;;
			0.0; 0.0; 0.0;;
			TextureFilename { "imgs/spaceships/slider.png"; }
		}
Frame cube1 {
	Mesh {
		340;
		-0.524, -0.524, 3.4833600000000002;,
		0.524, -0.524, 3.4833600000000002;,
		0.6002187230680208, 0.0014838651096571668, 3.43123366728076;,
		-0.6002187881152656, 0.0014819113988675753, 3.431233446024226;,
		-0.524, -0.524, 3.4833600000000002;,
		-0.6002187881152656, 0.0014819113988675753, 3.431233446024226;,
		-0.9919525414092317, 0.0017565558979598626, 0.13648260375013596;,
		-0.9151948664274498, -0.7615041228224835, 0.13417269361069334;,
		-0.524, -0.524, 3.4833600000000002;,
		-0.9151948664274498, -0.7615041228224835, 0.13417269361069334;,
		0.9151948664274498, -0.7615041228224835, 0.13432509370319962;,
		0.524, -0.524, 3.4833600000000002;,
		-0.524, 0.524, 3.084;,
		0.524, 0.524, 3.084;,
		0.43492, 0.7090057281924377, 2.567327437307227;,
		-0.43492, 0.7090057281924377, 2.567327437307227;,
		-0.524, 0.524, 3.084;,
		-0.6002187881152656, 0.0014819113988675753, 3.431233446024226;,
		0.6002187230680208, 0.0014838651096571668, 3.43123366728076;,
		0.524, 0.524, 3.084;,
		-0.524, 0.524, 3.084;,
		-0.9151340141879044, 0.7648540269253695, 0.13417269361069334;,
		-0.9919525414092317, 0.0017565558979598626, 0.13648260375013596;,
		-0.6002187881152656, 0.0014819113988675753, 3.431233446024226;,
		-0.524, 0.524, 3.084;,
		-0.43492, 0.7090057281924377, 2.567327437307227;,
		-0.9151340141879044, 0.7648540269253695, 0.13417269361069334;,
		0.524, 0.524, 3.084;,
		0.6002187230680208, 0.0014838651096571668, 3.43123366728076;,
		0.9913568779775439, 0.004437253135568094, 0.14360395701701179;,
		0.9151340141879044, 0.7648540269253695, 0.13432509370319962;,
		0.524, 0.524, 3.084;,
		0.9151340141879044, 0.7648540269253695, 0.13432509370319962;,
		0.43492, 0.7090057281924377, 2.567327437307227;,
		0.524, -0.524, 3.4833600000000002;,
		0.9151948664274498, -0.7615041228224835, 0.13432509370319962;,
		0.9913568779775439, 0.004437253135568094, 0.14360395701701179;,
		0.6002187230680208, 0.0014838651096571668, 3.43123366728076;,
		-1.0, -0.44396800000000003, -2.0518080000000003;,
		1.0, -0.44396800000000003, -2.0518080000000003;,
		0.9151948664274498, -0.7615041228224835, 0.13432509370319962;,
		-0.9151948664274498, -0.7615041228224835, 0.13417269361069334;,
		-1.0, -0.44396800000000003, -2.0518080000000003;,
		-1.0767584664727272, 0.0010862761360331756, -3.0817201252421467;,
		1.0767584835195108, 0.0010847405728624567, -3.0817199680540424;,
		1.0, -0.44396800000000003, -2.0518080000000003;,
		-1.0, -0.44396800000000003, -2.0518080000000003;,
		-0.9151948664274498, -0.7615041228224835, 0.13417269361069334;,
		-1.0202211830970636, 0.001533129310650967, -0.9362516392472916;,
		-1.0484898247848955, 0.0013097027233420714, -2.008985882244719;,
		-1.0, -0.44396800000000003, -2.0518080000000003;,
		-1.0484898247848955, 0.0013097027233420714, -2.008985882244719;,
		-1.0767584664727272, 0.0010862761360331756, -3.0817201252421467;,
		-1.0, 1.0, -3.084;,
		1.0, 1.0, -3.084;,
		0.7863011030562231, 0.7692507524118908, -3.083473338682691;,
		-0.7863011245945253, 0.7692507524479851, -3.08347332286873;,
		-1.0, 1.0, -3.084;,
		-1.0767584664727272, 0.0010862761360331756, -3.0817201252421467;,
		-1.0228969958774752, 0.3080791381406024, -2.009749177761958;,
		-0.997304166970055, 0.6148485735578628, -2.0105124732791966;,
		-1.0, 1.0, -3.084;,
		-0.83, 1.1040857281924377, -2.552112562692773;,
		0.83, 1.1040857281924377, -2.552112562692773;,
		1.0, 1.0, -3.084;,
		-1.0, 1.0, -3.084;,
		-0.9717113380626348, 0.9216180089751231, -2.0112757687964358;,
		-0.83, 1.1040857281924377, -2.552112562692773;,
		-1.0, 1.0, -3.084;,
		-0.997304166970055, 0.6148485735578628, -2.0105124732791966;,
		-0.9717113380626348, 0.9216180089751231, -2.0112757687964358;,
		-1.0, 1.0, -3.084;,
		-0.7863011245945253, 0.7692507524479851, -3.08347332286873;,
		-0.8275971659488164, 0.23183534602238848, -3.082246784841728;,
		-1.0767584664727272, 0.0010862761360331756, -3.0817201252421467;,
		1.0, 1.0, -3.084;,
		1.0767584835195108, 0.0010847405728624567, -3.0817199680540424;,
		0.8275971807977454, 0.23183416582675015, -3.082246646903041;,
		0.7863011030562231, 0.7692507524118908, -3.083473338682691;,
		1.0, 1.0, -3.084;,
		0.83, 1.1040857281924377, -2.552112562692773;,
		0.9717113380626348, 0.9216180089751231, -2.0112249687656;,
		1.0, 1.0, -3.084;,
		0.9717113380626348, 0.9216180089751231, -2.0112249687656;,
		0.997237985932486, 0.6151460875702257, -2.0096873101871857;,
		1.0, 1.0, -3.084;,
		0.997237985932486, 0.6151460875702257, -2.0096873101871857;,
		1.0227646338023373, 0.30867416616532833, -2.008149651608772;,
		1.0767584835195108, 0.0010847405728624567, -3.0817199680540424;,
		1.0, -0.44396800000000003, -2.0518080000000003;,
		1.0767584835195108, 0.0010847405728624567, -3.0817199680540424;,
		1.0482912816721885, 0.0022022447604310024, -2.0066119930303574;,
		1.0, -0.44396800000000003, -2.0518080000000003;,
		1.0482912816721885, 0.0022022447604310024, -2.0066119930303574;,
		1.0198240798248661, 0.003319748947999548, -0.9315040180066727;,
		0.9151948664274498, -0.7615041228224835, 0.13432509370319962;,
		-1.0767584664727272, 0.0010862761360331756, -3.0817201252421467;,
		-1.0484898247848955, 0.0013097027233420714, -2.008985882244719;,
		-1.0228969958774752, 0.3080791381406024, -2.009749177761958;,
		-1.0767584664727272, 0.0010862761360331756, -3.0817201252421467;,
		-0.8275971659488164, 0.23183534602238848, -3.082246784841728;,
		0.8275971807977454, 0.23183416582675015, -3.082246646903041;,
		1.0767584835195108, 0.0010847405728624567, -3.0817199680540424;,
		1.0767584835195108, 0.0010847405728624567, -3.0817199680540424;,
		1.0227646338023373, 0.30867416616532833, -2.008149651608772;,
		1.0482912816721885, 0.0022022447604310024, -2.0066119930303574;,
		-0.9151948664274498, -0.7615041228224835, 0.13417269361069334;,
		-0.9919525414092317, 0.0017565558979598626, 0.13648260375013596;,
		-1.0202211830970636, 0.001533129310650967, -0.9362516392472916;,
		-0.9151340141879044, 0.7648540269253695, 0.13417269361069334;,
		-0.7595612317759606, 0.9089145705404943, 0.11897077300410244;,
		-0.9434226761252696, 0.8432360179502464, -0.938551537592871;,
		-0.9151340141879044, 0.7648540269253695, 0.13417269361069334;,
		-0.43492, 0.7090057281924377, 2.567327437307227;,
		-0.7595612317759606, 0.9089145705404943, 0.11897077300410244;,
		-0.9151340141879044, 0.7648540269253695, 0.13417269361069334;,
		-0.9434226761252696, 0.8432360179502464, -0.938551537592871;,
		-0.9690221784492009, 0.5051520243466756, -0.9377849048110112;,
		-0.9151340141879044, 0.7648540269253695, 0.13417269361069334;,
		-0.9690221784492009, 0.5051520243466756, -0.9377849048110112;,
		-0.9946216807731323, 0.3396171229142218, -0.9370182720291513;,
		-0.9919525414092317, 0.0017565558979598626, 0.13648260375013596;,
		0.9151340141879044, 0.7648540269253695, 0.13432509370319962;,
		0.9913568779775439, 0.004437253135568094, 0.14360395701701179;,
		0.994356945258334, 0.3406861169972354, -0.9338193245148485;,
		0.9688898106918018, 0.5058696499010106, -0.9361346310230243;,
		0.9151340141879044, 0.7648540269253695, 0.13432509370319962;,
		0.7595612317759606, 0.9089145705404943, 0.11909726508088264;,
		0.43492, 0.7090057281924377, 2.567327437307227;,
		0.9151340141879044, 0.7648540269253695, 0.13432509370319962;,
		0.9434226761252696, 0.8432360179502464, -0.9384499375312001;,
		0.7595612317759606, 0.9089145705404943, 0.11909726508088264;,
		0.9151340141879044, 0.7648540269253695, 0.13432509370319962;,
		0.9688898106918018, 0.5058696499010106, -0.9361346310230243;,
		0.9434226761252696, 0.8432360179502464, -0.9384499375312001;,
		0.9151948664274498, -0.7615041228224835, 0.13432509370319962;,
		1.0198240798248661, 0.003319748947999548, -0.9315040180066727;,
		0.9913568779775439, 0.004437253135568094, 0.14360395701701179;,
		0.9913568779775439, 0.004437253135568094, 0.14360395701701179;,
		1.0198240798248661, 0.003319748947999548, -0.9315040180066727;,
		0.994356945258334, 0.3406861169972354, -0.9338193245148485;,
		-0.9919525414092317, 0.0017565558979598626, 0.13648260375013596;,
		-0.9946216807731323, 0.3396171229142218, -0.9370182720291513;,
		-1.0202211830970636, 0.001533129310650967, -0.9362516392472916;,
		-0.7595612317759606, 0.9089145705404943, 0.11897077300410244;,
		0.7595612317759606, 0.9089145705404943, 0.11909726508088264;,
		0.4491724769718768, 1.3765406221509109, -0.4267001561380368;,
		0.09773992748938592, 1.5268587831065188, -0.6021674195601981;,
		-0.09773992748938604, 1.5268587831065188, -0.6021836964918602;,
		-0.4491770696852646, 1.3765337028524036, -0.4267668830092367;,
		-0.7595612317759606, 0.9089145705404943, 0.11897077300410244;,
		-0.83, 1.1040857281924377, -2.552112562692773;,
		-0.9717113380626348, 0.9216180089751231, -2.0112757687964358;,
		-0.9434226761252696, 0.8432360179502464, -0.938551537592871;,
		-0.7595612317759606, 0.9089145705404943, 0.11897077300410244;,
		-0.43492, 0.7090057281924377, 2.567327437307227;,
		0.43492, 0.7090057281924377, 2.567327437307227;,
		0.7595612317759606, 0.9089145705404943, 0.11909726508088264;,
		-0.7595612317759606, 0.9089145705404943, 0.11897077300410244;,
		-0.4491770696852646, 1.3765337028524036, -0.4267668830092367;,
		-0.3560146779218047, 1.5451917580226566, -0.8531070098390172;,
		-0.37518348869513723, 1.598304540710275, -1.5800006269889224;,
		-0.49552180980788546, 1.486587723374677, -2.013895529923615;,
		-0.83, 1.1040857281924377, -2.552112562692773;,
		0.7595612317759606, 0.9089145705404943, 0.11909726508088264;,
		0.83, 1.1040857281924377, -2.552112562692773;,
		0.49552180980788535, 1.486587723374677, -2.013895529923615;,
		0.3751838001332711, 1.5983054036400588, -1.580000555724864;,
		0.35601436648367063, 1.5451908950928728, -0.8530488947477568;,
		0.4491724769718768, 1.3765406221509109, -0.4267001561380368;,
		0.7595612317759606, 0.9089145705404943, 0.11909726508088264;,
		0.9434226761252696, 0.8432360179502464, -0.9384499375312001;,
		0.9717113380626348, 0.9216180089751231, -2.0112249687656;,
		0.83, 1.1040857281924377, -2.552112562692773;,
		0.83, 1.1040857281924377, -2.552112562692773;,
		-0.83, 1.1040857281924377, -2.552112562692773;,
		-0.49552180980788546, 1.486587723374677, -2.013895529923615;,
		-0.13014176000002775, 1.6166375156264128, -1.8309029856242511;,
		0.13014176000002764, 1.6166375156264128, -1.8309029856242511;,
		0.49552180980788535, 1.486587723374677, -2.013895529923615;,
		-0.37518348869513723, 1.598304540710275, -1.5800006269889224;,
		-0.13014176000002775, 1.6166375156264128, -1.8309029856242511;,
		-0.49552180980788546, 1.486587723374677, -2.013895529923615;,
		-0.37518348869513723, 1.598304540710275, -1.5800006269889224;,
		-0.3560146779218047, 1.5451917580226566, -0.8531070098390172;,
		-0.3560146779218047, 1.8919463966983074, -0.8531070098390172;,
		-0.37518348869513723, 1.9450591793859258, -1.5800006269889224;,
		-0.37518348869513723, 1.598304540710275, -1.5800006269889224;,
		-0.37518348869513723, 1.9450591793859258, -1.5800006269889224;,
		-0.13014176000002775, 1.9633921543020638, -1.8309029856242511;,
		-0.13014176000002775, 1.6166375156264128, -1.8309029856242511;,
		-0.13014176000002775, 1.6166375156264128, -1.8309029856242511;,
		-0.13014176000002775, 1.9633921543020638, -1.8309029856242511;,
		0.13014176000002764, 1.9633921543020638, -1.8309029856242511;,
		0.13014176000002764, 1.6166375156264128, -1.8309029856242511;,
		-0.09773992748938604, 1.5268587831065188, -0.6021836964918602;,
		-0.3560146779218047, 1.5451917580226566, -0.8531070098390172;,
		-0.4491770696852646, 1.3765337028524036, -0.4267668830092367;,
		-0.09773992748938604, 1.5268587831065188, -0.6021836964918602;,
		0.09773992748938592, 1.5268587831065188, -0.6021674195601981;,
		0.09773992748938592, 1.8736134217821698, -0.6021674195601981;,
		-0.09773992748938604, 1.8736134217821698, -0.6021836964918602;,
		-0.09773992748938604, 1.5268587831065188, -0.6021836964918602;,
		-0.09773992748938604, 1.8736134217821698, -0.6021836964918602;,
		-0.3560146779218047, 1.8919463966983074, -0.8531070098390172;,
		-0.3560146779218047, 1.5451917580226566, -0.8531070098390172;,
		0.35601436648367063, 1.5451908950928728, -0.8530488947477568;,
		0.09773992748938592, 1.5268587831065188, -0.6021674195601981;,
		0.4491724769718768, 1.3765406221509109, -0.4267001561380368;,
		0.35601436648367063, 1.5451908950928728, -0.8530488947477568;,
		0.3751838001332711, 1.5983054036400588, -1.580000555724864;,
		0.3751838001332711, 1.9450600423157098, -1.580000555724864;,
		0.35601436648367063, 1.8919455337685238, -0.8530488947477568;,
		0.35601436648367063, 1.5451908950928728, -0.8530488947477568;,
		0.35601436648367063, 1.8919455337685238, -0.8530488947477568;,
		0.09773992748938592, 1.8736134217821698, -0.6021674195601981;,
		0.09773992748938592, 1.5268587831065188, -0.6021674195601981;,
		0.13014176000002764, 1.6166375156264128, -1.8309029856242511;,
		0.3751838001332711, 1.5983054036400588, -1.580000555724864;,
		0.49552180980788535, 1.486587723374677, -2.013895529923615;,
		0.13014176000002764, 1.6166375156264128, -1.8309029856242511;,
		0.13014176000002764, 1.9633921543020638, -1.8309029856242511;,
		0.3751838001332711, 1.9450600423157098, -1.580000555724864;,
		0.3751838001332711, 1.5983054036400588, -1.580000555724864;,
		0.09773992748938592, 1.8736134217821698, -0.6021674195601981;,
		0.35601436648367063, 1.8919455337685238, -0.8530488947477568;,
		0.2073831975550053, 2.046973579154378, -0.9179073841211534;,
		0.03665110426929354, 2.0348550338353455, -0.7520624117982475;,
		0.09773992748938592, 1.8736134217821698, -0.6021674195601981;,
		0.03665110426929354, 2.0348550338353455, -0.7520624117982475;,
		-0.036633468593527424, 2.034854645027485, -0.7520685423600539;,
		-0.09773992748938604, 1.8736134217821698, -0.6021836964918602;,
		0.35601436648367063, 1.8919455337685238, -0.8530488947477568;,
		0.3751838001332711, 1.9450600423157098, -1.580000555724864;,
		0.22327911069919942, 2.0910176210869356, -1.520719182634969;,
		0.2073831975550053, 2.046973579154378, -0.9179073841211534;,
		0.3751838001332711, 1.9450600423157098, -1.580000555724864;,
		0.13014176000002764, 1.9633921543020638, -1.8309029856242511;,
		0.06672923066327129, 2.1027295459234736, -1.6810130796525504;,
		0.22327911069919942, 2.0910176210869356, -1.520719182634969;,
		0.13014176000002764, 1.9633921543020638, -1.8309029856242511;,
		-0.13014176000002775, 1.9633921543020638, -1.8309029856242511;,
		-0.06672917586892846, 2.1027299098893155, -1.6810130530588894;,
		0.06672923066327129, 2.1027295459234736, -1.6810130796525504;,
		-0.13014176000002775, 1.9633921543020638, -1.8309029856242511;,
		-0.37518348869513723, 1.9450591793859258, -1.5800006269889224;,
		-0.2232787242361968, 2.091017639749479, -1.5207193231177645;,
		-0.06672917586892846, 2.1027299098893155, -1.6810130530588894;,
		-0.37518348869513723, 1.9450591793859258, -1.5800006269889224;,
		-0.3560146779218047, 1.8919463966983074, -0.8531070098390172;,
		-0.20738339688869936, 2.0469747749108826, -0.917958316440298;,
		-0.2232787242361968, 2.091017639749479, -1.5207193231177645;,
		-0.3560146779218047, 1.8919463966983074, -0.8531070098390172;,
		-0.09773992748938604, 1.8736134217821698, -0.6021836964918602;,
		-0.036633468593527424, 2.034854645027485, -0.7520685423600539;,
		-0.20738339688869936, 2.0469747749108826, -0.917958316440298;,
		0.03665110426929354, 2.0348550338353455, -0.7520624117982475;,
		0.2073831975550053, 2.046973579154378, -0.9179073841211534;,
		0.22327911069919942, 2.0910176210869356, -1.520719182634969;,
		0.06672923066327129, 2.1027295459234736, -1.6810130796525504;,
		-0.06672917586892846, 2.1027299098893155, -1.6810130530588894;,
		-0.2232787242361968, 2.091017639749479, -1.5207193231177645;,
		-0.20738339688869936, 2.0469747749108826, -0.917958316440298;,
		-0.036633468593527424, 2.034854645027485, -0.7520685423600539;,
		-0.9434226761252696, 0.8432360179502464, -0.938551537592871;,
		-0.9717113380626348, 0.9216180089751231, -2.0112757687964358;,
		-0.997304166970055, 0.6148485735578628, -2.0105124732791966;,
		-0.9690221784492009, 0.5051520243466756, -0.9377849048110112;,
		0.9434226761252696, 0.8432360179502464, -0.9384499375312001;,
		0.9688898106918018, 0.5058696499010106, -0.9361346310230243;,
		0.997237985932486, 0.6151460875702257, -2.0096873101871857;,
		0.9717113380626348, 0.9216180089751231, -2.0112249687656;,
		1.0198240798248661, 0.003319748947999548, -0.9315040180066727;,
		1.0482912816721885, 0.0022022447604310024, -2.0066119930303574;,
		1.0227646338023373, 0.30867416616532833, -2.008149651608772;,
		0.994356945258334, 0.3406861169972354, -0.9338193245148485;,
		-1.0202211830970636, 0.001533129310650967, -0.9362516392472916;,
		-0.9946216807731323, 0.3396171229142218, -0.9370182720291513;,
		-1.0228969958774752, 0.3080791381406024, -2.009749177761958;,
		-1.0484898247848955, 0.0013097027233420714, -2.008985882244719;,
		-1.0228969958774752, 0.3080791381406024, -2.009749177761958;,
		-0.9946216807731323, 0.3396171229142218, -0.9370182720291513;,
		-2.313862464364382, 0.2843714248576129, -1.4431661618626634;,
		-2.8304020660630425, 0.3080791381406024, -2.009749177761958;,
		-1.0228969958774752, 0.3080791381406024, -2.009749177761958;,
		-2.8304020660630425, 0.3080791381406024, -2.009749177761958;,
		-2.8048092371556224, 0.6148485735578628, -2.0105124732791966;,
		-0.997304166970055, 0.6148485735578628, -2.0105124732791966;,
		-0.997304166970055, 0.6148485735578628, -2.0105124732791966;,
		-2.8048092371556224, 0.6148485735578628, -2.0105124732791966;,
		-2.2882629620404504, 0.4499063262900667, -1.4439327946445233;,
		-0.9690221784492009, 0.5051520243466756, -0.9377849048110112;,
		-0.9690221784492009, 0.5051520243466756, -0.9377849048110112;,
		-2.2882629620404504, 0.4499063262900667, -1.4439327946445233;,
		-2.313862464364382, 0.2843714248576129, -1.4431661618626634;,
		-0.9946216807731323, 0.3396171229142218, -0.9370182720291513;,
		0.9688898106918018, 0.5058696499010106, -0.9361346310230243;,
		0.994356945258334, 0.3406861169972354, -0.9338193245148485;,
		2.313832029348703, 0.2809180873195372, -1.4396792877462787;,
		2.288364894782171, 0.4461016202233124, -1.4419945942544545;,
		0.9688898106918018, 0.5058696499010106, -0.9361346310230243;,
		2.288364894782171, 0.4461016202233124, -1.4419945942544545;,
		2.8047430561180535, 0.6151460875702257, -2.0096873101871857;,
		0.997237985932486, 0.6151460875702257, -2.0096873101871857;,
		0.994356945258334, 0.3406861169972354, -0.9338193245148485;,
		1.0227646338023373, 0.30867416616532833, -2.008149651608772;,
		2.830269703987905, 0.30867416616532833, -2.008149651608772;,
		2.313832029348703, 0.2809180873195372, -1.4396792877462787;,
		0.997237985932486, 0.6151460875702257, -2.0096873101871857;,
		2.8047430561180535, 0.6151460875702257, -2.0096873101871857;,
		2.830269703987905, 0.30867416616532833, -2.008149651608772;,
		1.0227646338023373, 0.30867416616532833, -2.008149651608772;,
		-2.8048092371556224, 0.6148485735578628, -2.0105124732791966;,
		-2.8304020660630425, 0.3080791381406024, -2.009749177761958;,
		-2.313862464364382, 0.2843714248576129, -1.4431661618626634;,
		-2.2882629620404504, 0.4499063262900667, -1.4439327946445233;,
		2.288364894782171, 0.4461016202233124, -1.4419945942544545;,
		2.313832029348703, 0.2809180873195372, -1.4396792877462787;,
		2.830269703987905, 0.30867416616532833, -2.008149651608772;,
		2.8047430561180535, 0.6151460875702257, -2.0096873101871857;,
		-0.7863011245945253, 0.7692507524479851, -3.08347332286873;,
		0.7863011030562231, 0.7692507524118908, -3.083473338682691;,
		0.7863011030562231, 0.7692507524118908, -2.6953156698630245;,
		-0.7863011245945253, 0.7692507524479851, -2.6953156540490637;,
		-0.7863011245945253, 0.7692507524479851, -3.08347332286873;,
		-0.7863011245945253, 0.7692507524479851, -2.6953156540490637;,
		-0.8275971659488164, 0.23183534602238848, -2.6940891160220617;,
		-0.8275971659488164, 0.23183534602238848, -3.082246784841728;,
		0.7863011030562231, 0.7692507524118908, -3.083473338682691;,
		0.8275971807977454, 0.23183416582675015, -3.082246646903041;,
		0.8275971807977454, 0.23183416582675015, -2.6940889780833746;,
		0.7863011030562231, 0.7692507524118908, -2.6953156698630245;,
		0.8275971807977454, 0.23183416582675015, -3.082246646903041;,
		-0.8275971659488164, 0.23183534602238848, -3.082246784841728;,
		-0.8275971659488164, 0.23183534602238848, -2.6940891160220617;,
		0.8275971807977454, 0.23183416582675015, -2.6940889780833746;,
		-0.7863011245945253, 0.7692507524479851, -2.6953156540490637;,
		0.7863011030562231, 0.7692507524118908, -2.6953156698630245;,
		0.8275971807977454, 0.23183416582675015, -2.6940889780833746;,
		-0.8275971659488164, 0.23183534602238848, -2.6940891160220617;;

		88;
		4;0, 1, 2, 3 ;,
		4;4, 5, 6, 7 ;,
		4;8, 9, 10, 11 ;,
		4;12, 13, 14, 15 ;,
		4;16, 17, 18, 19 ;,
		4;20, 21, 22, 23 ;,
		3;24, 25, 26 ;,
		4;27, 28, 29, 30 ;,
		3;31, 32, 33 ;,
		4;34, 35, 36, 37 ;,
		4;38, 39, 40, 41 ;,
		4;42, 43, 44, 45 ;,
		4;46, 47, 48, 49 ;,
		3;50, 51, 52 ;,
		4;53, 54, 55, 56 ;,
		4;57, 58, 59, 60 ;,
		4;61, 62, 63, 64 ;,
		3;65, 66, 67 ;,
		3;68, 69, 70 ;,
		4;71, 72, 73, 74 ;,
		4;75, 76, 77, 78 ;,
		3;79, 80, 81 ;,
		3;82, 83, 84 ;,
		4;85, 86, 87, 88 ;,
		3;89, 90, 91 ;,
		4;92, 93, 94, 95 ;,
		3;96, 97, 98 ;,
		4;99, 100, 101, 102 ;,
		3;103, 104, 105 ;,
		3;106, 107, 108 ;,
		3;109, 110, 111 ;,
		3;112, 113, 114 ;,
		3;115, 116, 117 ;,
		4;118, 119, 120, 121 ;,
		4;122, 123, 124, 125 ;,
		3;126, 127, 128 ;,
		3;129, 130, 131 ;,
		3;132, 133, 134 ;,
		3;135, 136, 137 ;,
		3;138, 139, 140 ;,
		3;141, 142, 143 ;,
		6;144, 145, 146, 147, 148, 149 ;,
		4;150, 151, 152, 153 ;,
		4;154, 155, 156, 157 ;,
		6;158, 159, 160, 161, 162, 163 ;,
		6;164, 165, 166, 167, 168, 169 ;,
		4;170, 171, 172, 173 ;,
		6;174, 175, 176, 177, 178, 179 ;,
		3;180, 181, 182 ;,
		4;183, 184, 185, 186 ;,
		4;187, 188, 189, 190 ;,
		4;191, 192, 193, 194 ;,
		3;195, 196, 197 ;,
		4;198, 199, 200, 201 ;,
		4;202, 203, 204, 205 ;,
		3;206, 207, 208 ;,
		4;209, 210, 211, 212 ;,
		4;213, 214, 215, 216 ;,
		3;217, 218, 219 ;,
		4;220, 221, 222, 223 ;,
		4;224, 225, 226, 227 ;,
		4;228, 229, 230, 231 ;,
		4;232, 233, 234, 235 ;,
		4;236, 237, 238, 239 ;,
		4;240, 241, 242, 243 ;,
		4;244, 245, 246, 247 ;,
		4;248, 249, 250, 251 ;,
		4;252, 253, 254, 255 ;,
		8;256, 257, 258, 259, 260, 261, 262, 263 ;,
		4;264, 265, 266, 267 ;,
		4;268, 269, 270, 271 ;,
		4;272, 273, 274, 275 ;,
		4;276, 277, 278, 279 ;,
		4;280, 281, 282, 283 ;,
		4;284, 285, 286, 287 ;,
		4;288, 289, 290, 291 ;,
		4;292, 293, 294, 295 ;,
		4;296, 297, 298, 299 ;,
		4;300, 301, 302, 303 ;,
		4;304, 305, 306, 307 ;,
		4;308, 309, 310, 311 ;,
		4;312, 313, 314, 315 ;,
		4;316, 317, 318, 319 ;,
		4;320, 321, 322, 323 ;,
		4;324, 325, 326, 327 ;,
		4;328, 329, 330, 331 ;,
		4;332, 333, 334, 335 ;,
		4;336, 337, 338, 339 ;;

		MeshNormals {
			340;		-0.5347479178142, -0.5482235407070841, 0.6430362461074538;,
		0.5347534740915084, -0.5482098050591637, 0.6430433356967914;,
		0.6681896359649246, 0.2351705576481689, 0.7058451807616956;,
		-0.6682631357900208, 0.2349719096918507, 0.7058417549280099;,
		-0.5347479178142, -0.5482235407070841, 0.6430362461074538;,
		-0.6682631357900208, 0.2349719096918507, 0.7058417549280099;,
		-0.9974514141880971, 0.025045849605268462, 0.06680854549917534;,
		-0.7901906958717227, -0.6123117693008869, 0.02594149828710823;,
		-0.5347479178142, -0.5482235407070841, 0.6430362461074538;,
		-0.7901906958717227, -0.6123117693008869, 0.02594149828710823;,
		0.7904113033630161, -0.6120227965716577, 0.02603973871960345;,
		0.5347534740915084, -0.5482098050591637, 0.6430433356967914;,
		-0.5084284511550212, 0.73579399283049, 0.4473340029225043;,
		0.5083214576422542, 0.7358788477428214, 0.4473160148543212;,
		0.35677395561638464, 0.9142760418103508, 0.19186365983540418;,
		-0.35678503995449407, 0.9142723550272799, 0.19186061632743112;,
		-0.5084284511550212, 0.73579399283049, 0.4473340029225043;,
		-0.6682631357900208, 0.2349719096918507, 0.7058417549280099;,
		0.6681896359649246, 0.2351705576481689, 0.7058451807616956;,
		0.5083214576422542, 0.7358788477428214, 0.4473160148543212;,
		-0.5084284511550212, 0.73579399283049, 0.4473340029225043;,
		-0.886278867066743, 0.4523469238266072, 0.09945868637527958;,
		-0.9974514141880971, 0.025045849605268462, 0.06680854549917534;,
		-0.6682631357900208, 0.2349719096918507, 0.7058417549280099;,
		-0.5084284511550212, 0.73579399283049, 0.4473340029225043;,
		-0.35678503995449407, 0.9142723550272799, 0.19186061632743112;,
		-0.886278867066743, 0.4523469238266072, 0.09945868637527958;,
		0.5083214576422542, 0.7358788477428214, 0.4473160148543212;,
		0.6681896359649246, 0.2351705576481689, 0.7058451807616956;,
		0.9974396108583516, 0.02529670250983849, 0.06689020505925128;,
		0.8862443263765339, 0.4524093814318369, 0.09948238817934749;,
		0.5083214576422542, 0.7358788477428214, 0.4473160148543212;,
		0.8862443263765339, 0.4524093814318369, 0.09948238817934749;,
		0.35677395561638464, 0.9142760418103508, 0.19186365983540418;,
		0.5347534740915084, -0.5482098050591637, 0.6430433356967914;,
		0.7904113033630161, -0.6120227965716577, 0.02603973871960345;,
		0.9974396108583516, 0.02529670250983849, 0.06689020505925128;,
		0.6681896359649246, 0.2351705576481689, 0.7058451807616956;,
		-0.6737801442856632, -0.7200188502388986, -0.16611192752793372;,
		0.6740135729306604, -0.7198176572237014, -0.16603687498332256;,
		0.7904113033630161, -0.6120227965716577, 0.02603973871960345;,
		-0.7901906958717227, -0.6123117693008869, 0.02594149828710823;,
		-0.6737801442856632, -0.7200188502388986, -0.16611192752793372;,
		-0.7700774175374893, -0.22483761788477122, -0.5970165965722335;,
		0.7701372805745668, -0.22474439098432245, -0.5969744783408224;,
		0.6740135729306604, -0.7198176572237014, -0.16603687498332256;,
		-0.6737801442856632, -0.7200188502388986, -0.16611192752793372;,
		-0.7901906958717227, -0.6123117693008869, 0.02594149828710823;,
		-0.9995912460584365, -0.012831533506187445, 0.025547848269901953;,
		-0.9995813372619905, -0.013582352124827635, 0.025547405118485696;,
		-0.6737801442856632, -0.7200188502388986, -0.16611192752793372;,
		-0.9995813372619905, -0.013582352124827635, 0.025547405118485696;,
		-0.7700774175374893, -0.22483761788477122, -0.5970165965722335;,
		-0.6917148351614615, 0.48601399994639455, -0.5341544520769795;,
		0.691721798480368, 0.4860030221840757, -0.5341554230137797;,
		-0.4016273977854881, -0.4355120044254458, -0.8056207093598002;,
		0.4016274236411124, -0.43551197011863835, -0.8056207150159339;,
		-0.6917148351614615, 0.48601399994639455, -0.5341544520769795;,
		-0.7700774175374893, -0.22483761788477122, -0.5970165965722335;,
		-0.9277805498456739, -0.23786206684129188, -0.2874802401662551;,
		-0.9058037271660875, 0.3642490951761, -0.2164305997667998;,
		-0.6917148351614615, 0.48601399994639455, -0.5341544520769795;,
		-0.48042957787243507, 0.8678909486020537, -0.12630408560272738;,
		0.4804256903250627, 0.8678928302064974, -0.1263059434541495;,
		0.691721798480368, 0.4860030221840757, -0.5341554230137797;,
		-0.6917148351614615, 0.48601399994639455, -0.5341544520769795;,
		-0.8969711694541562, 0.43852716807597836, 0.05600574994860665;,
		-0.48042957787243507, 0.8678909486020537, -0.12630408560272738;,
		-0.6917148351614615, 0.48601399994639455, -0.5341544520769795;,
		-0.9058037271660875, 0.3642490951761, -0.2164305997667998;,
		-0.8969711694541562, 0.43852716807597836, 0.05600574994860665;,
		-0.6917148351614615, 0.48601399994639455, -0.5341544520769795;,
		0.4016274236411124, -0.43551197011863835, -0.8056207150159339;,
		0.4126456519972604, 0.38026414460898617, -0.8277214182395861;,
		-0.7700774175374893, -0.22483761788477122, -0.5970165965722335;,
		0.691721798480368, 0.4860030221840757, -0.5341554230137797;,
		0.7701372805745668, -0.22474439098432245, -0.5969744783408224;,
		-0.4126450935069329, 0.38026421867973026, -0.8277216626357854;,
		-0.4016273977854881, -0.4355120044254458, -0.8056207093598002;,
		0.691721798480368, 0.4860030221840757, -0.5341554230137797;,
		0.4804256903250627, 0.8678928302064974, -0.1263059434541495;,
		0.8969820757503784, 0.43850528444173303, 0.056002422262051856;,
		0.691721798480368, 0.4860030221840757, -0.5341554230137797;,
		0.8969820757503784, 0.43850528444173303, 0.056002422262051856;,
		0.906362483223668, 0.3633007842380093, -0.21568400306159347;,
		0.691721798480368, 0.4860030221840757, -0.5341554230137797;,
		0.906362483223668, 0.3633007842380093, -0.21568400306159347;,
		0.9272935482723208, -0.23871897637180176, -0.2883399480691642;,
		0.7701372805745668, -0.22474439098432245, -0.5969744783408224;,
		0.6740135729306604, -0.7198176572237014, -0.16603687498332256;,
		0.7701372805745668, -0.22474439098432245, -0.5969744783408224;,
		0.9995817983642369, -0.01332296732701052, 0.025665675921776463;,
		0.6740135729306604, -0.7198176572237014, -0.16603687498332256;,
		0.9995817983642369, -0.01332296732701052, 0.025665675921776463;,
		0.999592587268999, -0.012487767348911518, 0.02566544648954955;,
		0.7904113033630161, -0.6120227965716577, 0.02603973871960345;,
		-0.7700774175374893, -0.22483761788477122, -0.5970165965722335;,
		-0.9995813372619905, -0.013582352124827635, 0.025547405118485696;,
		-0.9277805498456739, -0.23786206684129188, -0.2874802401662551;,
		-0.7700774175374893, -0.22483761788477122, -0.5970165965722335;,
		0.4126456519972604, 0.38026414460898617, -0.8277214182395861;,
		-0.4126450935069329, 0.38026421867973026, -0.8277216626357854;,
		0.7701372805745668, -0.22474439098432245, -0.5969744783408224;,
		0.7701372805745668, -0.22474439098432245, -0.5969744783408224;,
		0.9272935482723208, -0.23871897637180176, -0.2883399480691642;,
		0.9995817983642369, -0.01332296732701052, 0.025665675921776463;,
		-0.7901906958717227, -0.6123117693008869, 0.02594149828710823;,
		-0.9974514141880971, 0.025045849605268462, 0.06680854549917534;,
		-0.9995912460584365, -0.012831533506187445, 0.025547848269901953;,
		-0.886278867066743, 0.4523469238266072, 0.09945868637527958;,
		-0.5134562855583795, 0.834716145326742, 0.19902663025700096;,
		-0.8978170784160501, 0.43680590856208606, 0.05590252185473107;,
		-0.886278867066743, 0.4523469238266072, 0.09945868637527958;,
		-0.35678503995449407, 0.9142723550272799, 0.19186061632743112;,
		-0.5134562855583795, 0.834716145326742, 0.19902663025700096;,
		-0.886278867066743, 0.4523469238266072, 0.09945868637527958;,
		-0.8978170784160501, 0.43680590856208606, 0.05590252185473107;,
		-0.8856774925840502, 0.3411654616767295, 0.3149309557489288;,
		-0.886278867066743, 0.4523469238266072, 0.09945868637527958;,
		-0.8856774925840502, 0.3411654616767295, 0.3149309557489288;,
		-0.9392606643082122, -0.19060687057041636, 0.2854092244035718;,
		-0.9974514141880971, 0.025045849605268462, 0.06680854549917534;,
		0.8862443263765339, 0.4524093814318369, 0.09948238817934749;,
		0.9974396108583516, 0.02529670250983849, 0.06689020505925128;,
		0.9398671870646178, -0.18849480886514833, 0.28481463745765256;,
		0.8850383615906499, 0.34274521751340775, 0.31501240354091603;,
		0.8862443263765339, 0.4524093814318369, 0.09948238817934749;,
		0.513434695608833, 0.8347290709595778, 0.19902811720966743;,
		0.35677395561638464, 0.9142760418103508, 0.19186365983540418;,
		0.8862443263765339, 0.4524093814318369, 0.09948238817934749;,
		0.8978314358091322, 0.4367768772090504, 0.05589876929255444;,
		0.513434695608833, 0.8347290709595778, 0.19902811720966743;,
		0.8862443263765339, 0.4524093814318369, 0.09948238817934749;,
		0.8850383615906499, 0.34274521751340775, 0.31501240354091603;,
		0.8978314358091322, 0.4367768772090504, 0.05589876929255444;,
		0.7904113033630161, -0.6120227965716577, 0.02603973871960345;,
		0.999592587268999, -0.012487767348911518, 0.02566544648954955;,
		0.9974396108583516, 0.02529670250983849, 0.06689020505925128;,
		0.9974396108583516, 0.02529670250983849, 0.06689020505925128;,
		0.999592587268999, -0.012487767348911518, 0.02566544648954955;,
		0.9398671870646178, -0.18849480886514833, 0.28481463745765256;,
		-0.9974514141880971, 0.025045849605268462, 0.06680854549917534;,
		-0.9392606643082122, -0.19060687057041636, 0.2854092244035718;,
		-0.9995912460584365, -0.012831533506187445, 0.025547848269901953;,
		-0.5134562855583795, 0.834716145326742, 0.19902663025700096;,
		0.513434695608833, 0.8347290709595778, 0.19902811720966743;,
		0.3812612016622188, 0.8429842157800626, 0.3794963874040882;,
		0.28333350682760333, 0.5092256219688093, 0.8126569939643981;,
		-0.2834455586951873, 0.5092122326025461, 0.8126263085969488;,
		-0.3813139656227808, 0.8429623938309839, 0.3794918473534918;,
		-0.5134562855583795, 0.834716145326742, 0.19902663025700096;,
		-0.48042957787243507, 0.8678909486020537, -0.12630408560272738;,
		-0.8969711694541562, 0.43852716807597836, 0.05600574994860665;,
		-0.8978170784160501, 0.43680590856208606, 0.05590252185473107;,
		-0.5134562855583795, 0.834716145326742, 0.19902663025700096;,
		-0.35678503995449407, 0.9142723550272799, 0.19186061632743112;,
		0.35677395561638464, 0.9142760418103508, 0.19186365983540418;,
		0.513434695608833, 0.8347290709595778, 0.19902811720966743;,
		-0.5134562855583795, 0.834716145326742, 0.19902663025700096;,
		-0.3813139656227808, 0.8429623938309839, 0.3794918473534918;,
		-0.8219415897092982, 0.45880221897051765, 0.3375093287212678;,
		-0.8458144073393743, 0.47652969058399797, -0.23982794317815045;,
		-0.39001275177297495, 0.8841421158647523, -0.257260125959447;,
		-0.48042957787243507, 0.8678909486020537, -0.12630408560272738;,
		0.513434695608833, 0.8347290709595778, 0.19902811720966743;,
		0.4804256903250627, 0.8678928302064974, -0.1263059434541495;,
		0.3900112969391572, 0.8841422509858293, -0.2572618671345353;,
		0.8458133857099147, 0.4765304443715775, -0.2398300484529784;,
		0.8219244500982722, 0.4588167961789948, 0.3375312517007804;,
		0.3812612016622188, 0.8429842157800626, 0.3794963874040882;,
		0.513434695608833, 0.8347290709595778, 0.19902811720966743;,
		0.8978314358091322, 0.4367768772090504, 0.05589876929255444;,
		0.8969820757503784, 0.43850528444173303, 0.056002422262051856;,
		0.4804256903250627, 0.8678928302064974, -0.1263059434541495;,
		0.4804256903250627, 0.8678928302064974, -0.1263059434541495;,
		-0.48042957787243507, 0.8678909486020537, -0.12630408560272738;,
		-0.39001275177297495, 0.8841421158647523, -0.257260125959447;,
		-0.30442871342640526, 0.556686274197507, -0.7729317890743281;,
		0.30442807190442983, 0.5566859663089387, -0.7729322634948256;,
		0.3900112969391572, 0.8841422509858293, -0.2572618671345353;,
		-0.8458144073393743, 0.47652969058399797, -0.23982794317815045;,
		-0.30442871342640526, 0.556686274197507, -0.7729317890743281;,
		-0.39001275177297495, 0.8841421158647523, -0.257260125959447;,
		-0.8458144073393743, 0.47652969058399797, -0.23982794317815045;,
		-0.8219415897092982, 0.45880221897051765, 0.3375093287212678;,
		-0.8287688434746459, 0.40073648290482683, 0.39057966582346226;,
		-0.8556832629086961, 0.41627362872248286, -0.3074449863116064;,
		-0.8458144073393743, 0.47652969058399797, -0.23982794317815045;,
		-0.8556832629086961, 0.41627362872248286, -0.3074449863116064;,
		-0.3612579596289146, 0.42637359451070905, -0.8292757349089451;,
		-0.30442871342640526, 0.556686274197507, -0.7729317890743281;,
		-0.30442871342640526, 0.556686274197507, -0.7729317890743281;,
		-0.3612579596289146, 0.42637359451070905, -0.8292757349089451;,
		0.36125747921163026, 0.4263739412609653, -0.8292757659109841;,
		0.30442807190442983, 0.5566859663089387, -0.7729322634948256;,
		-0.2834455586951873, 0.5092122326025461, 0.8126263085969488;,
		-0.8219415897092982, 0.45880221897051765, 0.3375093287212678;,
		-0.3813139656227808, 0.8429623938309839, 0.3794918473534918;,
		-0.2834455586951873, 0.5092122326025461, 0.8126263085969488;,
		0.28333350682760333, 0.5092256219688093, 0.8126569939643981;,
		0.33654782795770477, 0.39151934039454334, 0.8564158835483919;,
		-0.33665639085901994, 0.3915138764315062, 0.8563757113880299;,
		-0.2834455586951873, 0.5092122326025461, 0.8126263085969488;,
		-0.33665639085901994, 0.3915138764315062, 0.8563757113880299;,
		-0.8287688434746459, 0.40073648290482683, 0.39057966582346226;,
		-0.8219415897092982, 0.45880221897051765, 0.3375093287212678;,
		0.8219244500982722, 0.4588167961789948, 0.3375312517007804;,
		0.28333350682760333, 0.5092256219688093, 0.8126569939643981;,
		0.3812612016622188, 0.8429842157800626, 0.3794963874040882;,
		0.8219244500982722, 0.4588167961789948, 0.3375312517007804;,
		0.8458133857099147, 0.4765304443715775, -0.2398300484529784;,
		0.8556821271975517, 0.416274768446768, -0.3074466040620106;,
		0.8287502624825759, 0.40074300466081914, 0.390612399509386;,
		0.8219244500982722, 0.4588167961789948, 0.3375312517007804;,
		0.8287502624825759, 0.40074300466081914, 0.390612399509386;,
		0.33654782795770477, 0.39151934039454334, 0.8564158835483919;,
		0.28333350682760333, 0.5092256219688093, 0.8126569939643981;,
		0.30442807190442983, 0.5566859663089387, -0.7729322634948256;,
		0.8458133857099147, 0.4765304443715775, -0.2398300484529784;,
		0.3900112969391572, 0.8841422509858293, -0.2572618671345353;,
		0.30442807190442983, 0.5566859663089387, -0.7729322634948256;,
		0.36125747921163026, 0.4263739412609653, -0.8292757659109841;,
		0.8556821271975517, 0.416274768446768, -0.3074466040620106;,
		0.8458133857099147, 0.4765304443715775, -0.2398300484529784;,
		0.33654782795770477, 0.39151934039454334, 0.8564158835483919;,
		0.8287502624825759, 0.40074300466081914, 0.390612399509386;,
		0.43012234383236675, 0.8676188265068131, 0.24946410809391328;,
		0.17350830641629286, 0.8554459178019006, 0.4879622416956192;,
		0.33654782795770477, 0.39151934039454334, 0.8564158835483919;,
		0.17350830641629286, 0.8554459178019006, 0.4879622416956192;,
		-0.1735712580807496, 0.855442636337454, 0.4879456058868572;,
		-0.33665639085901994, 0.3915138764315062, 0.8563757113880299;,
		0.8287502624825759, 0.40074300466081914, 0.390612399509386;,
		0.8556821271975517, 0.416274768446768, -0.3074466040620106;,
		0.4473969409585186, 0.8870904374950085, -0.11360692287829265;,
		0.43012234383236675, 0.8676188265068131, 0.24946410809391328;,
		0.8556821271975517, 0.416274768446768, -0.3074466040620106;,
		0.36125747921163026, 0.4263739412609653, -0.8292757659109841;,
		0.1905016406045312, 0.9009691633635868, -0.3898252064642568;,
		0.4473969409585186, 0.8870904374950085, -0.11360692287829265;,
		0.36125747921163026, 0.4263739412609653, -0.8292757659109841;,
		-0.3612579596289146, 0.42637359451070905, -0.8292757349089451;,
		-0.19050416682299354, 0.9009686693130291, -0.3898251137874348;,
		0.1905016406045312, 0.9009691633635868, -0.3898252064642568;,
		-0.3612579596289146, 0.42637359451070905, -0.8292757349089451;,
		-0.8556832629086961, 0.41627362872248286, -0.3074449863116064;,
		-0.4474004471772226, 0.8870888491374155, -0.11360551747902443;,
		-0.19050416682299354, 0.9009686693130291, -0.3898251137874348;,
		-0.8556832629086961, 0.41627362872248286, -0.3074449863116064;,
		-0.8287688434746459, 0.40073648290482683, 0.39057966582346226;,
		-0.4301399653837412, 0.8676142974989446, 0.24944947575628762;,
		-0.4474004471772226, 0.8870888491374155, -0.11360551747902443;,
		-0.8287688434746459, 0.40073648290482683, 0.39057966582346226;,
		-0.33665639085901994, 0.3915138764315062, 0.8563757113880299;,
		-0.1735712580807496, 0.855442636337454, 0.4879456058868572;,
		-0.4301399653837412, 0.8676142974989446, 0.24944947575628762;,
		0.17350830641629286, 0.8554459178019006, 0.4879622416956192;,
		0.43012234383236675, 0.8676188265068131, 0.24946410809391328;,
		0.4473969409585186, 0.8870904374950085, -0.11360692287829265;,
		0.1905016406045312, 0.9009691633635868, -0.3898252064642568;,
		-0.19050416682299354, 0.9009686693130291, -0.3898251137874348;,
		-0.4474004471772226, 0.8870888491374155, -0.11360551747902443;,
		-0.4301399653837412, 0.8676142974989446, 0.24944947575628762;,
		-0.1735712580807496, 0.855442636337454, 0.4879456058868572;,
		-0.8978170784160501, 0.43680590856208606, 0.05590252185473107;,
		-0.8969711694541562, 0.43852716807597836, 0.05600574994860665;,
		-0.9058037271660875, 0.3642490951761, -0.2164305997667998;,
		-0.8856774925840502, 0.3411654616767295, 0.3149309557489288;,
		0.8978314358091322, 0.4367768772090504, 0.05589876929255444;,
		0.8850383615906499, 0.34274521751340775, 0.31501240354091603;,
		0.906362483223668, 0.3633007842380093, -0.21568400306159347;,
		0.8969820757503784, 0.43850528444173303, 0.056002422262051856;,
		0.999592587268999, -0.012487767348911518, 0.02566544648954955;,
		0.9995817983642369, -0.01332296732701052, 0.025665675921776463;,
		0.9272935482723208, -0.23871897637180176, -0.2883399480691642;,
		0.9398671870646178, -0.18849480886514833, 0.28481463745765256;,
		-0.9995912460584365, -0.012831533506187445, 0.025547848269901953;,
		-0.9392606643082122, -0.19060687057041636, 0.2854092244035718;,
		-0.9277805498456739, -0.23786206684129188, -0.2874802401662551;,
		-0.9995813372619905, -0.013582352124827635, 0.025547405118485696;,
		-0.9277805498456739, -0.23786206684129188, -0.2874802401662551;,
		-0.9392606643082122, -0.19060687057041636, 0.2854092244035718;,
		-0.5066560149776546, -0.4059242250857285, 0.7606084445859863;,
		-0.5893841339346351, -0.7625128607648445, -0.26683418040860724;,
		-0.9277805498456739, -0.23786206684129188, -0.2874802401662551;,
		-0.5893841339346351, -0.7625128607648445, -0.26683418040860724;,
		-0.5869761434795671, 0.8025452959428611, -0.10667734035792294;,
		-0.9058037271660875, 0.3642490951761, -0.2164305997667998;,
		-0.9058037271660875, 0.3642490951761, -0.2164305997667998;,
		-0.5869761434795671, 0.8025452959428611, -0.10667734035792294;,
		-0.47343742192521054, 0.46834228771344133, 0.7459976602243136;,
		-0.8856774925840502, 0.3411654616767295, 0.3149309557489288;,
		-0.8856774925840502, 0.3411654616767295, 0.3149309557489288;,
		-0.47343742192521054, 0.46834228771344133, 0.7459976602243136;,
		-0.5066560149776546, -0.4059242250857285, 0.7606084445859863;,
		-0.9392606643082122, -0.19060687057041636, 0.2854092244035718;,
		0.8850383615906499, 0.34274521751340775, 0.31501240354091603;,
		0.9398671870646178, -0.18849480886514833, 0.28481463745765256;,
		0.5079848667577331, -0.40199758025674026, 0.7618066162831969;,
		0.4729002174790757, 0.47159663390249645, 0.7442862347243012;,
		0.8850383615906499, 0.34274521751340775, 0.31501240354091603;,
		0.4729002174790757, 0.47159663390249645, 0.7442862347243012;,
		0.5880307375372615, 0.801971003758386, -0.1051777583054081;,
		0.906362483223668, 0.3633007842380093, -0.21568400306159347;,
		0.9398671870646178, -0.18849480886514833, 0.28481463745765256;,
		0.9272935482723208, -0.23871897637180176, -0.2883399480691642;,
		0.5882852584751779, -0.7623183576464154, -0.26979839928373345;,
		0.5079848667577331, -0.40199758025674026, 0.7618066162831969;,
		0.906362483223668, 0.3633007842380093, -0.21568400306159347;,
		0.5880307375372615, 0.801971003758386, -0.1051777583054081;,
		0.5882852584751779, -0.7623183576464154, -0.26979839928373345;,
		0.9272935482723208, -0.23871897637180176, -0.2883399480691642;,
		-0.5869761434795671, 0.8025452959428611, -0.10667734035792294;,
		-0.5893841339346351, -0.7625128607648445, -0.26683418040860724;,
		-0.5066560149776546, -0.4059242250857285, 0.7606084445859863;,
		-0.47343742192521054, 0.46834228771344133, 0.7459976602243136;,
		0.4729002174790757, 0.47159663390249645, 0.7442862347243012;,
		0.5079848667577331, -0.40199758025674026, 0.7618066162831969;,
		0.5882852584751779, -0.7623183576464154, -0.26979839928373345;,
		0.5880307375372615, 0.801971003758386, -0.1051777583054081;,
		0.4016274236411124, -0.43551197011863835, -0.8056207150159339;,
		-0.4016273977854881, -0.4355120044254458, -0.8056207093598002;,
		-0.5610550018415479, -0.6071058461799355, -0.5627075407729359;,
		0.5610550081945724, -0.6071058690631619, -0.5627075097498266;,
		0.4016274236411124, -0.43551197011863835, -0.8056207150159339;,
		0.5610550081945724, -0.6071058690631619, -0.5627075097498266;,
		0.5913812235941512, 0.5463275605506276, -0.593122622198045;,
		0.4126456519972604, 0.38026414460898617, -0.8277214182395861;,
		-0.4016273977854881, -0.4355120044254458, -0.8056207093598002;,
		-0.4126450935069329, 0.38026421867973026, -0.8277216626357854;,
		-0.5913806288154997, 0.5463278882034905, -0.5931229134276458;,
		-0.5610550018415479, -0.6071058461799355, -0.5627075407729359;,
		-0.4126450935069329, 0.38026421867973026, -0.8277216626357854;,
		0.4126456519972604, 0.38026414460898617, -0.8277214182395861;,
		0.5913812235941512, 0.5463275605506276, -0.593122622198045;,
		-0.5913806288154997, 0.5463278882034905, -0.5931229134276458;,
		0.5610550081945724, -0.6071058690631619, -0.5627075097498266;,
		-0.5610550018415479, -0.6071058461799355, -0.5627075407729359;,
		-0.5913806288154997, 0.5463278882034905, -0.5931229134276458;,
		0.5913812235941512, 0.5463275605506276, -0.593122622198045;;
		88;
		4;0, 1, 2, 3 ;,
		4;4, 5, 6, 7 ;,
		4;8, 9, 10, 11 ;,
		4;12, 13, 14, 15 ;,
		4;16, 17, 18, 19 ;,
		4;20, 21, 22, 23 ;,
		3;24, 25, 26 ;,
		4;27, 28, 29, 30 ;,
		3;31, 32, 33 ;,
		4;34, 35, 36, 37 ;,
		4;38, 39, 40, 41 ;,
		4;42, 43, 44, 45 ;,
		4;46, 47, 48, 49 ;,
		3;50, 51, 52 ;,
		4;53, 54, 55, 56 ;,
		4;57, 58, 59, 60 ;,
		4;61, 62, 63, 64 ;,
		3;65, 66, 67 ;,
		3;68, 69, 70 ;,
		4;71, 72, 73, 74 ;,
		4;75, 76, 77, 78 ;,
		3;79, 80, 81 ;,
		3;82, 83, 84 ;,
		4;85, 86, 87, 88 ;,
		3;89, 90, 91 ;,
		4;92, 93, 94, 95 ;,
		3;96, 97, 98 ;,
		4;99, 100, 101, 102 ;,
		3;103, 104, 105 ;,
		3;106, 107, 108 ;,
		3;109, 110, 111 ;,
		3;112, 113, 114 ;,
		3;115, 116, 117 ;,
		4;118, 119, 120, 121 ;,
		4;122, 123, 124, 125 ;,
		3;126, 127, 128 ;,
		3;129, 130, 131 ;,
		3;132, 133, 134 ;,
		3;135, 136, 137 ;,
		3;138, 139, 140 ;,
		3;141, 142, 143 ;,
		6;144, 145, 146, 147, 148, 149 ;,
		4;150, 151, 152, 153 ;,
		4;154, 155, 156, 157 ;,
		6;158, 159, 160, 161, 162, 163 ;,
		6;164, 165, 166, 167, 168, 169 ;,
		4;170, 171, 172, 173 ;,
		6;174, 175, 176, 177, 178, 179 ;,
		3;180, 181, 182 ;,
		4;183, 184, 185, 186 ;,
		4;187, 188, 189, 190 ;,
		4;191, 192, 193, 194 ;,
		3;195, 196, 197 ;,
		4;198, 199, 200, 201 ;,
		4;202, 203, 204, 205 ;,
		3;206, 207, 208 ;,
		4;209, 210, 211, 212 ;,
		4;213, 214, 215, 216 ;,
		3;217, 218, 219 ;,
		4;220, 221, 222, 223 ;,
		4;224, 225, 226, 227 ;,
		4;228, 229, 230, 231 ;,
		4;232, 233, 234, 235 ;,
		4;236, 237, 238, 239 ;,
		4;240, 241, 242, 243 ;,
		4;244, 245, 246, 247 ;,
		4;248, 249, 250, 251 ;,
		4;252, 253, 254, 255 ;,
		8;256, 257, 258, 259, 260, 261, 262, 263 ;,
		4;264, 265, 266, 267 ;,
		4;268, 269, 270, 271 ;,
		4;272, 273, 274, 275 ;,
		4;276, 277, 278, 279 ;,
		4;280, 281, 282, 283 ;,
		4;284, 285, 286, 287 ;,
		4;288, 289, 290, 291 ;,
		4;292, 293, 294, 295 ;,
		4;296, 297, 298, 299 ;,
		4;300, 301, 302, 303 ;,
		4;304, 305, 306, 307 ;,
		4;308, 309, 310, 311 ;,
		4;312, 313, 314, 315 ;,
		4;316, 317, 318, 319 ;,
		4;320, 321, 322, 323 ;,
		4;324, 325, 326, 327 ;,
		4;328, 329, 330, 331 ;,
		4;332, 333, 334, 335 ;,
		4;336, 337, 338, 339 ;;
		}
		MeshTextureCoords {
		340;
		0.08398044722328546, 0.9599914127224549;,
		0.1832863279533452, 0.9602777777777778;,
		0.19065291782890031, 0.9102606719260402;,
		0.07690243609230502, 0.9099328356132248;,
		0.6696128525673851, 0.3634125798272635;,
		0.6632429820017817, 0.31335925635812045;,
		0.34977178362117284, 0.31725918270708475;,
		0.35102197543424535, 0.3897859502865739;,
		0.7464016461534241, 0.2287711936201482;,
		0.75714808102827, 0.13714966423208252;,
		0.707196245879981, 0.13711531395171628;,
		0.7178014420854391, 0.22874915085614467;,
		0.08429614770378371, 0.8505054003060067;,
		0.1836020285334578, 0.8507917308149388;,
		0.1753109687357403, 0.7987647924501033;,
		0.09288708764711082, 0.7985271381276899;,
		0.08429614770378371, 0.8505054003060067;,
		0.07690243609230502, 0.9099328356132248;,
		0.19065291782890031, 0.9102606719260402;,
		0.1836020285334578, 0.8507917308149388;,
		0.6308638793582709, 0.2631254192895638;,
		0.3494028986138197, 0.2449472127486816;,
		0.34977178362117284, 0.31725918270708475;,
		0.6632429820017817, 0.31335925635812045;,
		0.6308638793582709, 0.2631254192895638;,
		0.5837188736541418, 0.23993524883456652;,
		0.3494028986138197, 0.2449472127486816;,
		0.08294931573775663, 0.07545168000723257;,
		0.05057095419179156, 0.12568603049375404;,
		0.36336996761747065, 0.12933093291266184;,
		0.3643957728491388, 0.0572781609163322;,
		0.08294931573775663, 0.07545168000723257;,
		0.3643957728491388, 0.0572781609163322;,
		0.13009448754253766, 0.052262088958762276;,
		0.044199999999999996, 0.17573955305240363;,
		0.3627773393871911, 0.20211738810969615;,
		0.36336996761747065, 0.12933093291266184;,
		0.05057095419179156, 0.12568603049375404;,
		0.7595088572154313, 0.07686933922292516;,
		0.7049283150733667, 0.07682730869136645;,
		0.707196245879981, 0.13711531395171628;,
		0.75714808102827, 0.13714966423208252;,
		0.7595088572154313, 0.07686933922292516;,
		0.7616271948418264, 0.04625238347291494;,
		0.7028571335046309, 0.046207147302681495;,
		0.7049283150733667, 0.07682730869136645;,
		0.14275541591787028, 0.3612668512932532;,
		0.35102197543424535, 0.3897859502865739;,
		0.2484178265939167, 0.3179051277363454;,
		0.14644455424534314, 0.31853682260173233;,
		0.14275541591787028, 0.3612668512932532;,
		0.14644455424534314, 0.31853682260173233;,
		0.044116082607085536, 0.31897450303072816;,
		0.9786068090533102, 0.3439383555381853;,
		0.7891175296012136, 0.34711039794493814;,
		0.8097303287545808, 0.36863377823686416;,
		0.9587259602457319, 0.36613959775933336;,
		0.04376666666666666, 0.22338214745273222;,
		0.044116082607085536, 0.31897450303072816;,
		0.14629067537297769, 0.2892110449273354;,
		0.14614859171082234, 0.2598320437508137;,
		0.9786068090533102, 0.3439383555381853;,
		0.9616406347255463, 0.2928586495242189;,
		0.8043645327803053, 0.295491444721824;,
		0.7891175296012136, 0.34711039794493814;,
		0.04376666666666666, 0.22338214745273222;,
		0.14602734928346628, 0.23050875370778745;,
		0.09532731588794217, 0.20673961033191834;,
		0.04376666666666666, 0.22338214745273222;,
		0.14614859171082234, 0.2598320437508137;,
		0.14602734928346628, 0.23050875370778745;,
		0.9786068090533102, 0.3439383555381853;,
		0.9587259602457319, 0.36613959775933336;,
		0.9634908932554531, 0.4169914630370697;,
		0.9874635647779956, 0.43845858236837865;,
		0.7891175296012136, 0.34711039794493814;,
		0.7834293796430399, 0.44187425143288905;,
		0.8066701030686673, 0.4196167482134664;,
		0.8097303287545808, 0.36863377823686416;,
		0.6700460149915901, 0.03570779421574033;,
		0.6184855220112728, 0.019066666666666676;,
		0.5677811246855586, 0.042836778775789175;,
		0.6700460149915901, 0.03570779421574033;,
		0.5677811246855586, 0.042836778775789175;,
		0.5675870183398967, 0.07213116947264409;,
		0.6700460149915901, 0.03570779421574033;,
		0.5675870183398967, 0.07213116947264409;,
		0.5673722143645086, 0.1014808923010414;,
		0.6696990501700852, 0.13129895001495617;,
		0.5710615538572773, 0.17359129051122058;,
		0.6696990501700852, 0.13129895001495617;,
		0.5671457071097001, 0.13077747132228335;,
		0.5710615538572773, 0.17359129051122058;,
		0.5671457071097001, 0.13077747132228335;,
		0.4649459814615605, 0.13006219199951097;,
		0.3627773393871911, 0.20211738810969615;,
		0.044116082607085536, 0.31897450303072816;,
		0.14644455424534314, 0.31853682260173233;,
		0.14629067537297769, 0.2892110449273354;,
		0.9874635647779956, 0.43845858236837865;,
		0.9634908932554531, 0.4169914630370697;,
		0.8066701030686673, 0.4196167482134664;,
		0.7834293796430399, 0.44187425143288905;,
		0.6696990501700852, 0.13129895001495617;,
		0.5673722143645086, 0.1014808923010414;,
		0.5671457071097001, 0.13077747132228335;,
		0.35102197543424535, 0.3897859502865739;,
		0.34977178362117284, 0.31725918270708475;,
		0.2484178265939167, 0.3179051277363454;,
		0.3494028986138197, 0.2449472127486816;,
		0.34969681606903086, 0.2248559713292686;,
		0.24815544289244706, 0.23775728416604314;,
		0.3494028986138197, 0.2449472127486816;,
		0.5837188736541418, 0.23993524883456652;,
		0.34969681606903086, 0.2248559713292686;,
		0.3494028986138197, 0.2449472127486816;,
		0.24815544289244706, 0.23775728416604314;,
		0.24821465406082321, 0.26991413832123656;,
		0.3494028986138197, 0.2449472127486816;,
		0.24821465406082321, 0.26991413832123656;,
		0.24825630607624888, 0.2857544606621579;,
		0.34977178362117284, 0.31725918270708475;,
		0.3643957728491388, 0.0572781609163322;,
		0.36336996761747065, 0.12933093291266184;,
		0.4652538833088939, 0.0979808229048581;,
		0.4654422728832124, 0.0821753219887198;,
		0.3643957728491388, 0.0572781609163322;,
		0.36410434007592035, 0.03718680467463331;,
		0.13009448754253766, 0.052262088958762276;,
		0.3643957728491388, 0.0572781609163322;,
		0.4656481673356357, 0.05008688593984856;,
		0.36410434007592035, 0.03718680467463331;,
		0.3643957728491388, 0.0572781609163322;,
		0.4654422728832124, 0.0821753219887198;,
		0.4656481673356357, 0.05008688593984856;,
		0.3627773393871911, 0.20211738810969615;,
		0.4649459814615605, 0.13006219199951097;,
		0.36336996761747065, 0.12933093291266184;,
		0.36336996761747065, 0.12933093291266184;,
		0.4649459814615605, 0.13006219199951097;,
		0.4652538833088939, 0.0979808229048581;,
		0.34977178362117284, 0.31725918270708475;,
		0.24825630607624888, 0.2857544606621579;,
		0.2484178265939167, 0.3179051277363454;,
		0.2746331777904165, 0.9392938125263488;,
		0.44920163020121473, 0.9394777777777777;,
		0.40492719345423295, 0.874255667261051;,
		0.37184510152397354, 0.8551740128041518;,
		0.35518814625816986, 0.8555567919030982;,
		0.32202836468485596, 0.8748882072912794;,
		0.34969681606903086, 0.2248559713292686;,
		0.09532731588794217, 0.20673961033191834;,
		0.14602734928346628, 0.23050875370778745;,
		0.24815544289244706, 0.23775728416604314;,
		0.0627960463097067, 0.5656661757487347;,
		0.09288708764711082, 0.7985271381276899;,
		0.1753109687357403, 0.7987647924501033;,
		0.20674428890152763, 0.5660931708335744;,
		0.2746331777904165, 0.9392938125263488;,
		0.32202836468485596, 0.8748882072912794;,
		0.33822220900483874, 0.8320622579464639;,
		0.3389403583776267, 0.7600368813468452;,
		0.32259356113082793, 0.7177749988031009;,
		0.27668748905539037, 0.659619898899546;,
		0.44920163020121473, 0.9394777777777777;,
		0.4627088373163438, 0.6596198988995461;,
		0.41404916871832775, 0.7170598530367137;,
		0.39530765677429813, 0.7584446492090391;,
		0.3911700929510572, 0.830518590552958;,
		0.40492719345423295, 0.874255667261051;,
		0.36410434007592035, 0.03718680467463331;,
		0.4656481673356357, 0.05008688593984856;,
		0.5677811246855586, 0.042836778775789175;,
		0.6184855220112728, 0.019066666666666676;,
		0.4627088373163438, 0.6596198988995461;,
		0.27668748905539037, 0.659619898899546;,
		0.32259356113082793, 0.7177749988031009;,
		0.35702028461418506, 0.7362241402115843;,
		0.37956198180952916, 0.7357728912643533;,
		0.41404916871832775, 0.7170598530367137;,
		0.3389403583776267, 0.7600368813468452;,
		0.35702028461418506, 0.7362241402115843;,
		0.32259356113082793, 0.7177749988031009;,
		0.56285847461817, 0.7028904220629519;,
		0.6335304273835893, 0.7075306284727044;,
		0.63133729657508, 0.6756138452997751;,
		0.565537842911077, 0.670705345479912;,
		0.56285847461817, 0.7028904220629519;,
		0.565537842911077, 0.670705345479912;,
		0.5349996190904983, 0.6613897927878946;,
		0.5290684081229408, 0.6951088256291477;,
		0.681726706367703, 0.8425957368902799;,
		0.6691689086425566, 0.8105337571738968;,
		0.6481124373610545, 0.821246895347878;,
		0.6576601070840622, 0.8520219634804516;,
		0.35518814625816986, 0.8555567919030982;,
		0.33822220900483874, 0.8320622579464639;,
		0.32202836468485596, 0.8748882072912794;,
		0.6688404194660624, 0.703292274518298;,
		0.6878563817721447, 0.6984587383607432;,
		0.6792823469785833, 0.6647270112916153;,
		0.6623042254660956, 0.6713640088271039;,
		0.6688404194660624, 0.703292274518298;,
		0.6623042254660956, 0.6713640088271039;,
		0.63133729657508, 0.6756138452997751;,
		0.6335304273835893, 0.7075306284727044;,
		0.3911700929510572, 0.830518590552958;,
		0.37184510152397354, 0.8551740128041518;,
		0.40492719345423295, 0.874255667261051;,
		0.553314611647089, 0.8668882382235745;,
		0.6231855647903826, 0.8609453751444486;,
		0.620408262180357, 0.8293680511645047;,
		0.5545426361896155, 0.8345213323635607;,
		0.553314611647089, 0.8668882382235745;,
		0.5545426361896155, 0.8345213323635607;,
		0.5208710314543864, 0.8300833076438058;,
		0.5170795192340518, 0.8647858220721294;,
		0.37956198180952916, 0.7357728912643533;,
		0.39530765677429813, 0.7584446492090391;,
		0.41404916871832775, 0.7170598530367137;,
		0.6576601070840622, 0.8520219634804516;,
		0.6481124373610545, 0.821246895347878;,
		0.620408262180357, 0.8293680511645047;,
		0.6231855647903826, 0.8609453751444486;,
		0.5208710314543864, 0.8300833076438058;,
		0.5545426361896155, 0.8345213323635607;,
		0.5573499326522171, 0.8136219237669644;,
		0.5317132791370177, 0.8084897941511162;,
		0.6792823469785833, 0.6647270112916153;,
		0.6618799866865023, 0.6466715961977985;,
		0.6548066699974006, 0.6505014487553095;,
		0.6623042254660956, 0.6713640088271039;,
		0.5545426361896155, 0.8345213323635607;,
		0.620408262180357, 0.8293680511645047;,
		0.6168983783976887, 0.8097102911933005;,
		0.5573499326522171, 0.8136219237669644;,
		0.620408262180357, 0.8293680511645047;,
		0.6481124373610545, 0.821246895347878;,
		0.6397384845088064, 0.8032299730282305;,
		0.6168983783976887, 0.8097102911933005;,
		0.6481124373610545, 0.821246895347878;,
		0.6691689086425566, 0.8105337571738968;,
		0.6518012189443968, 0.7956417395838157;,
		0.6397384845088064, 0.8032299730282305;,
		0.5349996190904983, 0.6613897927878946;,
		0.565537842911077, 0.670705345479912;,
		0.5697346992635969, 0.6509843579367558;,
		0.5477448740057712, 0.6430698612979094;,
		0.565537842911077, 0.670705345479912;,
		0.63133729657508, 0.6756138452997751;,
		0.6287082345406878, 0.6549670880404609;,
		0.5697346992635969, 0.6509843579367558;,
		0.63133729657508, 0.6756138452997751;,
		0.6623042254660956, 0.6713640088271039;,
		0.6548066699974006, 0.6505014487553095;,
		0.6287082345406878, 0.6549670880404609;,
		0.3624534543797114, 0.642431010010657;,
		0.37863162481396256, 0.6266740325644036;,
		0.38013773421588287, 0.5694005773706945;,
		0.36530341097510993, 0.5541711637118483;,
		0.3526571492274982, 0.5541710579182186;,
		0.33782268792398956, 0.5694005515618101;,
		0.3393292428973787, 0.6266692412346907;,
		0.3555091811201105, 0.642430433330772;,
		0.24815544289244706, 0.23775728416604314;,
		0.14602734928346628, 0.23050875370778745;,
		0.14614859171082234, 0.2598320437508137;,
		0.24821465406082321, 0.26991413832123656;,
		0.4656481673356357, 0.05008688593984856;,
		0.4654422728832124, 0.0821753219887198;,
		0.5675870183398967, 0.07213116947264409;,
		0.5677811246855586, 0.042836778775789175;,
		0.4649459814615605, 0.13006219199951097;,
		0.5671457071097001, 0.13077747132228335;,
		0.5673722143645086, 0.1014808923010414;,
		0.4652538833088939, 0.0979808229048581;,
		0.2484178265939167, 0.3179051277363454;,
		0.24825630607624888, 0.2857544606621579;,
		0.14629067537297769, 0.2892110449273354;,
		0.14644455424534314, 0.31853682260173233;,
		0.7898706035345371, 0.20559504456134348;,
		0.7884814325767808, 0.2572360486551407;,
		0.8520063578244098, 0.23284870700909344;,
		0.8768471446848172, 0.20554746788393485;,
		0.791605038789806, 0.13905725107556632;,
		0.8638843424470426, 0.13501852270478598;,
		0.8624567345248809, 0.12220288098608445;,
		0.7898933279221886, 0.126866201575497;,
		0.21886629761133736, 0.42980396511245134;,
		0.04799689811132901, 0.42980396511245134;,
		0.09682771651331229, 0.4855880964799333;,
		0.22229397778959292, 0.5317186958773334;,
		0.9805457930234889, 0.12079334396574148;,
		0.8988652666012934, 0.12471968875063855;,
		0.8980511715923306, 0.1335808682893017;,
		0.9792929393532589, 0.13036874730356207;,
		0.7942940883787248, 0.15848535044691858;,
		0.7955593364543431, 0.16803194742532546;,
		0.8764479181429624, 0.17124624056699922;,
		0.8756616091381265, 0.162427883200558;,
		0.2463220666793054, 0.5400198988995459;,
		0.371818214609648, 0.49395788270709307;,
		0.4205893545906562, 0.4379427473466634;,
		0.24975053665973085, 0.43804970163664425;,
		0.9745844628445295, 0.2582940141147797;,
		0.9731826307037863, 0.20657966340541656;,
		0.8862129617194291, 0.20652157544282534;,
		0.9110435161295245, 0.2339231995088774;,
		0.9849471386421813, 0.16462133839892157;,
		0.9121142873274836, 0.15967793050154122;,
		0.9106228989710495, 0.1724713223716524;,
		0.9831761814868012, 0.17685633470596307;,
		0.8624567345248809, 0.12220288098608445;,
		0.8638843424470426, 0.13501852270478598;,
		0.8980511715923306, 0.1335808682893017;,
		0.8988652666012934, 0.12471968875063855;,
		0.8756616091381265, 0.162427883200558;,
		0.8764479181429624, 0.17124624056699922;,
		0.9106228989710495, 0.1724713223716524;,
		0.9121142873274836, 0.15967793050154122;,
		0.9658251314312503, 0.03537946127313274;,
		0.8470793887417744, 0.032782022357586205;,
		0.8536949337618057, 0.049703620290594386;,
		0.9512195876257218, 0.05185507914367016;,
		0.9658251314312503, 0.03537946127313274;,
		0.9512195876257218, 0.05185507914367016;,
		0.9473650908821112, 0.07626878022510286;,
		0.9535237880185402, 0.0925365263571406;,
		0.8470793887417744, 0.032782022357586205;,
		0.8320553658846166, 0.08984477755610598;,
		0.8458875994489952, 0.07403802480185451;,
		0.8536949337618057, 0.049703620290594386;,
		0.8320553658846166, 0.08984477755610598;,
		0.9535237880185402, 0.0925365263571406;,
		0.9473650908821112, 0.07626878022510286;,
		0.8458875994489952, 0.07403802480185451;,
		0.9512195876257218, 0.05185507914367016;,
		0.8536949337618057, 0.049703620290594386;,
		0.8458875994489952, 0.07403802480185451;,
		0.9473650908821112, 0.07626878022510286;;
		}
		MeshMaterialList {
			1;
			88;
			0;
			0;
			0;
			0;
			0;
			0;
			0;
			0;
			0;
			0;
			0;
			0;
			0;
			0;
			0;
			0;
			0;
			0;
			0;
			0;
			0;
			0;
			0;
			0;
			0;
			0;
			0;
			0;
			0;
			0;
			0;
			0;
			0;
			0;
			0;
			0;
			0;
			0;
			0;
			0;
			0;
			0;
			0;
			0;
			0;
			0;
			0;
			0;
			0;
			0;
			0;
			0;
			0;
			0;
			0;
			0;
			0;
			0;
			0;
			0;
			0;
			0;
			0;
			0;
			0;
			0;
			0;
			0;
			0;
			0;
			0;
			0;
			0;
			0;
			0;
			0;
			0;
			0;
			0;
			0;
			0;
			0;
			0;
			0;
			0;
			0;
			0;
			0;
			;
			{cube1_auv}
		}
	}}