xof 0303txt 0064
#Exported from Wings 3D 1.2
		Material cube1_auv {
			1.0; 1.0; 1.0; 1.0;;
		1.0;
			1.0; 1.0; 1.0;;
			0.0; 0.0; 0.0;;
			TextureFilename { "imgs/buildings/1_1.png"; }
		}
Frame cube1 {
	Mesh {
		56;
		-1.0, 8.88888888888939e-4, 1.0;,
		-1.0, 4.032832568888889, 1.0;,
		-1.0, 4.032832568888889, -1.0;,
		-1.0, 8.88888888888939e-4, -1.0;,
		-1.0, 8.88888888888939e-4, 1.0;,
		1.0, 8.88888888888939e-4, 1.0;,
		1.0, 4.032832568888889, 1.0;,
		-1.0, 4.032832568888889, 1.0;,
		-1.0, 8.88888888888939e-4, 1.0;,
		-1.0, 8.88888888888939e-4, -1.0;,
		1.0, 8.88888888888939e-4, -1.0;,
		1.0, 8.88888888888939e-4, 1.0;,
		-1.0, 4.032832568888889, 1.0;,
		1.0, 4.032832568888889, 1.0;,
		0.896, 4.032832568888889, 0.896;,
		-0.896, 4.032832568888889, 0.896;,
		-1.0, 4.032832568888889, 1.0;,
		-0.896, 4.032832568888889, 0.896;,
		-0.896, 4.032832568888889, -0.896;,
		-1.0, 4.032832568888889, -1.0;,
		1.0, 4.032832568888889, 1.0;,
		1.0, 8.88888888888939e-4, 1.0;,
		1.0, 8.88888888888939e-4, -1.0;,
		1.0, 4.032832568888889, -1.0;,
		1.0, 4.032832568888889, 1.0;,
		1.0, 4.032832568888889, -1.0;,
		0.896, 4.032832568888889, -0.896;,
		0.896, 4.032832568888889, 0.896;,
		-1.0, 8.88888888888939e-4, -1.0;,
		-1.0, 4.032832568888889, -1.0;,
		1.0, 4.032832568888889, -1.0;,
		1.0, 8.88888888888939e-4, -1.0;,
		-1.0, 4.032832568888889, -1.0;,
		-0.896, 4.032832568888889, -0.896;,
		0.896, 4.032832568888889, -0.896;,
		1.0, 4.032832568888889, -1.0;,
		-0.896, 4.032832568888889, 0.896;,
		0.896, 4.032832568888889, 0.896;,
		0.896, 3.8697580293688887, 0.896;,
		-0.896, 3.8697580293688887, 0.896;,
		-0.896, 4.032832568888889, 0.896;,
		-0.896, 3.8697580293688887, 0.896;,
		-0.896, 3.8697580293688887, -0.896;,
		-0.896, 4.032832568888889, -0.896;,
		0.896, 4.032832568888889, 0.896;,
		0.896, 4.032832568888889, -0.896;,
		0.896, 3.8697580293688887, -0.896;,
		0.896, 3.8697580293688887, 0.896;,
		0.896, 4.032832568888889, -0.896;,
		-0.896, 4.032832568888889, -0.896;,
		-0.896, 3.8697580293688887, -0.896;,
		0.896, 3.8697580293688887, -0.896;,
		-0.896, 3.8697580293688887, 0.896;,
		0.896, 3.8697580293688887, 0.896;,
		0.896, 3.8697580293688887, -0.896;,
		-0.896, 3.8697580293688887, -0.896;;

		14;
		4;0, 1, 2, 3 ;,
		4;4, 5, 6, 7 ;,
		4;8, 9, 10, 11 ;,
		4;12, 13, 14, 15 ;,
		4;16, 17, 18, 19 ;,
		4;20, 21, 22, 23 ;,
		4;24, 25, 26, 27 ;,
		4;28, 29, 30, 31 ;,
		4;32, 33, 34, 35 ;,
		4;36, 37, 38, 39 ;,
		4;40, 41, 42, 43 ;,
		4;44, 45, 46, 47 ;,
		4;48, 49, 50, 51 ;,
		4;52, 53, 54, 55 ;;

		MeshNormals {
			56;		-0.5773502691896258, -0.5773502691896258, 0.5773502691896258;,
		-0.4082482904638631, 0.8164965809277261, 0.4082482904638631;,
		-0.4082482904638631, 0.8164965809277261, -0.4082482904638631;,
		-0.5773502691896258, -0.5773502691896258, -0.5773502691896258;,
		-0.5773502691896258, -0.5773502691896258, 0.5773502691896258;,
		0.5773502691896258, -0.5773502691896258, 0.5773502691896258;,
		0.4082482904638631, 0.8164965809277261, 0.4082482904638631;,
		-0.4082482904638631, 0.8164965809277261, 0.4082482904638631;,
		-0.5773502691896258, -0.5773502691896258, 0.5773502691896258;,
		-0.5773502691896258, -0.5773502691896258, -0.5773502691896258;,
		0.5773502691896258, -0.5773502691896258, -0.5773502691896258;,
		0.5773502691896258, -0.5773502691896258, 0.5773502691896258;,
		-0.4082482904638631, 0.8164965809277261, 0.4082482904638631;,
		0.4082482904638631, 0.8164965809277261, 0.4082482904638631;,
		-0.4082482904638631, 0.8164965809277261, -0.4082482904638631;,
		0.4082482904638631, 0.8164965809277261, -0.4082482904638631;,
		-0.4082482904638631, 0.8164965809277261, 0.4082482904638631;,
		0.4082482904638631, 0.8164965809277261, -0.4082482904638631;,
		0.4082482904638631, 0.8164965809277261, 0.4082482904638631;,
		-0.4082482904638631, 0.8164965809277261, -0.4082482904638631;,
		0.4082482904638631, 0.8164965809277261, 0.4082482904638631;,
		0.5773502691896258, -0.5773502691896258, 0.5773502691896258;,
		0.5773502691896258, -0.5773502691896258, -0.5773502691896258;,
		0.4082482904638631, 0.8164965809277261, -0.4082482904638631;,
		0.4082482904638631, 0.8164965809277261, 0.4082482904638631;,
		0.4082482904638631, 0.8164965809277261, -0.4082482904638631;,
		-0.4082482904638631, 0.8164965809277261, 0.4082482904638631;,
		-0.4082482904638631, 0.8164965809277261, -0.4082482904638631;,
		-0.5773502691896258, -0.5773502691896258, -0.5773502691896258;,
		-0.4082482904638631, 0.8164965809277261, -0.4082482904638631;,
		0.4082482904638631, 0.8164965809277261, -0.4082482904638631;,
		0.5773502691896258, -0.5773502691896258, -0.5773502691896258;,
		-0.4082482904638631, 0.8164965809277261, -0.4082482904638631;,
		0.4082482904638631, 0.8164965809277261, 0.4082482904638631;,
		-0.4082482904638631, 0.8164965809277261, 0.4082482904638631;,
		0.4082482904638631, 0.8164965809277261, -0.4082482904638631;,
		0.4082482904638631, 0.8164965809277261, -0.4082482904638631;,
		-0.4082482904638631, 0.8164965809277261, -0.4082482904638631;,
		-0.5773502691896258, 0.5773502691896258, -0.5773502691896258;,
		0.5773502691896258, 0.5773502691896258, -0.5773502691896258;,
		0.4082482904638631, 0.8164965809277261, -0.4082482904638631;,
		0.5773502691896258, 0.5773502691896258, -0.5773502691896258;,
		0.5773502691896258, 0.5773502691896258, 0.5773502691896258;,
		0.4082482904638631, 0.8164965809277261, 0.4082482904638631;,
		-0.4082482904638631, 0.8164965809277261, -0.4082482904638631;,
		-0.4082482904638631, 0.8164965809277261, 0.4082482904638631;,
		-0.5773502691896258, 0.5773502691896258, 0.5773502691896258;,
		-0.5773502691896258, 0.5773502691896258, -0.5773502691896258;,
		-0.4082482904638631, 0.8164965809277261, 0.4082482904638631;,
		0.4082482904638631, 0.8164965809277261, 0.4082482904638631;,
		0.5773502691896258, 0.5773502691896258, 0.5773502691896258;,
		-0.5773502691896258, 0.5773502691896258, 0.5773502691896258;,
		0.5773502691896258, 0.5773502691896258, -0.5773502691896258;,
		-0.5773502691896258, 0.5773502691896258, -0.5773502691896258;,
		-0.5773502691896258, 0.5773502691896258, 0.5773502691896258;,
		0.5773502691896258, 0.5773502691896258, 0.5773502691896258;;
		14;
		4;0, 1, 2, 3 ;,
		4;4, 5, 6, 7 ;,
		4;8, 9, 10, 11 ;,
		4;12, 13, 14, 15 ;,
		4;16, 17, 18, 19 ;,
		4;20, 21, 22, 23 ;,
		4;24, 25, 26, 27 ;,
		4;28, 29, 30, 31 ;,
		4;32, 33, 34, 35 ;,
		4;36, 37, 38, 39 ;,
		4;40, 41, 42, 43 ;,
		4;44, 45, 46, 47 ;,
		4;48, 49, 50, 51 ;,
		4;52, 53, 54, 55 ;;
		}
		MeshTextureCoords {
		56;
		0.49999999999999994, 1.0;,
		0.5, 0.4960070400000003;,
		0.25, 0.4960070400000002;,
		0.25, 1.0;,
		0.75, 1.0;,
		0.9999999999999998, 1.0;,
		0.9999999999999999, 0.4960070400000003;,
		0.75, 0.4960070400000004;,
		0.6284111111111349, 0.3101070400000001;,
		0.6284111111111349, 0.06010704000000022;,
		0.378411111111135, 0.06010704000000022;,
		0.378411111111135, 0.3101070400000002;,
		0.05185555555555572, 0.304618151111111;,
		0.3018555555555794, 0.30461815111111146;,
		0.2888555555555778, 0.2916181511111098;,
		0.06485555555554592, 0.2916181511111131;,
		0.05185555555555572, 0.304618151111111;,
		0.06485555555554592, 0.2916181511111131;,
		0.06485555555555672, 0.06761815111108871;,
		0.05185555555555555, 0.054618151111087254;,
		0.4999999999999999, 0.4960070400000003;,
		0.5, 1.0;,
		0.7499999999999999, 1.0;,
		0.7499999999999998, 0.4960070400000003;,
		0.3018555555555794, 0.30461815111111146;,
		0.3018555555555791, 0.0546181511110877;,
		0.28885555555558157, 0.06761815111108516;,
		0.2888555555555778, 0.2916181511111098;,
		0.24999999999999994, 1.0;,
		0.25, 0.4960070400000003;,
		2.7755575615628914e-17, 0.4960070400000002;,
		0.0, 1.0;,
		0.05185555555555555, 0.054618151111087254;,
		0.06485555555555672, 0.06761815111108871;,
		0.28885555555558157, 0.06761815111108516;,
		0.3018555555555791, 0.0546181511110877;,
		0.7297444444444682, 0.39558284956444445;,
		0.5057444444444682, 0.39558284956444445;,
		0.5057444444444682, 0.41596716700444447;,
		0.7297444444444682, 0.41596716700444447;,
		0.03907777777780168, 0.3935782781155558;,
		0.03907777777780168, 0.4139625955555558;,
		0.26307777777780167, 0.4139625955555558;,
		0.26307777777780167, 0.3935782781155558;,
		0.9683666666666904, 0.3952763099022222;,
		0.7443666666666904, 0.3952763099022222;,
		0.7443666666666904, 0.4156606273422222;,
		0.9683666666666904, 0.4156606273422222;,
		0.49357777777780154, 0.3935782781155558;,
		0.26957777777780156, 0.3935782781155558;,
		0.26957777777780156, 0.4139625955555558;,
		0.49357777777780154, 0.4139625955555558;,
		0.6886444444444683, 0.2988227225600002;,
		0.9126444444444682, 0.2988227225600002;,
		0.9126444444444682, 0.07482272256000022;,
		0.6886444444444683, 0.07482272256000022;;
		}
		MeshMaterialList {
			1;
			14;
			0;
			0;
			0;
			0;
			0;
			0;
			0;
			0;
			0;
			0;
			0;
			0;
			0;
			0;
			;
			{cube1_auv}
		}
	}}