xof 0303txt 0064
#Exported from Wings 3D 1.2
		Material cube1_auv {
			1.0; 1.0; 1.0; 1.0;;
		1.0;
			1.0; 1.0; 1.0;;
			0.0; 0.0; 0.0;;
			TextureFilename { "imgs/buildings/2_2.png"; }
		}
Frame cube1 {
	Mesh {
		120;
		-1.0, 8.88888888888939e-4, 1.0;,
		-1.0, 3.839861030456889, 1.0;,
		-1.0, 3.839861030456889, -1.0;,
		-1.0, 8.88888888888939e-4, -1.0;,
		-1.0, 8.88888888888939e-4, 1.0;,
		1.0, 8.88888888888939e-4, 1.0;,
		1.0, 3.839861030456889, 1.0;,
		-1.0, 3.839861030456889, 1.0;,
		-1.0, 8.88888888888939e-4, 1.0;,
		-1.0, 8.88888888888939e-4, -1.0;,
		1.0, 8.88888888888939e-4, -1.0;,
		1.0, 8.88888888888939e-4, 1.0;,
		-1.0, 3.839861030456889, 1.0;,
		1.0, 3.839861030456889, 1.0;,
		0.694, 4.032832568888889, 0.694;,
		-0.694, 4.032832568888889, 0.694;,
		-1.0, 3.839861030456889, 1.0;,
		-0.694, 4.032832568888889, 0.694;,
		-0.694, 4.032832568888889, -0.694;,
		-1.0, 3.839861030456889, -1.0;,
		1.0, 3.839861030456889, 1.0;,
		1.0, 8.88888888888939e-4, 1.0;,
		1.0, 8.88888888888939e-4, -1.0;,
		1.0, 3.839861030456889, -1.0;,
		1.0, 3.839861030456889, 1.0;,
		1.0, 3.839861030456889, -1.0;,
		0.694, 4.032832568888889, -0.694;,
		0.694, 4.032832568888889, 0.694;,
		-1.0, 8.88888888888939e-4, -1.0;,
		-1.0, 3.839861030456889, -1.0;,
		1.0, 3.839861030456889, -1.0;,
		1.0, 8.88888888888939e-4, -1.0;,
		-1.0, 3.839861030456889, -1.0;,
		-0.694, 4.032832568888889, -0.694;,
		0.694, 4.032832568888889, -0.694;,
		1.0, 3.839861030456889, -1.0;,
		-0.694, 4.032832568888889, 0.694;,
		0.694, 4.032832568888889, 0.694;,
		0.694, 4.138831019576889, 0.694;,
		-0.694, 4.138831019576889, 0.694;,
		-0.694, 4.032832568888889, 0.694;,
		-0.694, 4.138831019576889, 0.694;,
		-0.694, 4.138831019576889, -0.694;,
		-0.694, 4.032832568888889, -0.694;,
		0.694, 4.032832568888889, 0.694;,
		0.694, 4.032832568888889, -0.694;,
		0.694, 4.138831019576889, -0.694;,
		0.694, 4.138831019576889, 0.694;,
		0.694, 4.032832568888889, -0.694;,
		-0.694, 4.032832568888889, -0.694;,
		-0.694, 4.138831019576889, -0.694;,
		0.694, 4.138831019576889, -0.694;,
		-0.694, 4.138831019576889, 0.694;,
		0.694, 4.138831019576889, 0.694;,
		0.567692, 4.138831019576889, 0.567692;,
		-0.567692, 4.138831019576889, 0.567692;,
		-0.694, 4.138831019576889, 0.694;,
		-0.567692, 4.138831019576889, 0.567692;,
		-0.567692, 4.138831019576889, -0.567692;,
		-0.694, 4.138831019576889, -0.694;,
		0.694, 4.138831019576889, 0.694;,
		0.694, 4.138831019576889, -0.694;,
		0.567692, 4.138831019576889, -0.567692;,
		0.567692, 4.138831019576889, 0.567692;,
		0.694, 4.138831019576889, -0.694;,
		-0.694, 4.138831019576889, -0.694;,
		-0.567692, 4.138831019576889, -0.567692;,
		0.567692, 4.138831019576889, -0.567692;,
		-0.567692, 4.138831019576889, 0.567692;,
		0.567692, 4.138831019576889, 0.567692;,
		0.567692, 4.261136924216889, 0.567692;,
		-0.567692, 4.261136924216889, 0.567692;,
		-0.567692, 4.138831019576889, 0.567692;,
		-0.567692, 4.261136924216889, 0.567692;,
		-0.567692, 4.261136924216889, -0.567692;,
		-0.567692, 4.138831019576889, -0.567692;,
		0.567692, 4.138831019576889, 0.567692;,
		0.567692, 4.138831019576889, -0.567692;,
		0.567692, 4.261136924216889, -0.567692;,
		0.567692, 4.261136924216889, 0.567692;,
		0.567692, 4.138831019576889, -0.567692;,
		-0.567692, 4.138831019576889, -0.567692;,
		-0.567692, 4.261136924216889, -0.567692;,
		0.567692, 4.261136924216889, -0.567692;,
		-0.567692, 4.261136924216889, 0.567692;,
		0.567692, 4.261136924216889, 0.567692;,
		0.487079736, 4.261136924216889, 0.487079736;,
		-0.487079736, 4.261136924216889, 0.487079736;,
		-0.567692, 4.261136924216889, 0.567692;,
		-0.487079736, 4.261136924216889, 0.487079736;,
		-0.487079736, 4.261136924216889, -0.487079736;,
		-0.567692, 4.261136924216889, -0.567692;,
		0.567692, 4.261136924216889, 0.567692;,
		0.567692, 4.261136924216889, -0.567692;,
		0.487079736, 4.261136924216889, -0.487079736;,
		0.487079736, 4.261136924216889, 0.487079736;,
		0.567692, 4.261136924216889, -0.567692;,
		-0.567692, 4.261136924216889, -0.567692;,
		-0.487079736, 4.261136924216889, -0.487079736;,
		0.487079736, 4.261136924216889, -0.487079736;,
		-0.487079736, 4.261136924216889, 0.487079736;,
		0.487079736, 4.261136924216889, 0.487079736;,
		0.487079736, 4.348110011960889, 0.487079736;,
		-0.487079736, 4.348110011960889, 0.487079736;,
		-0.487079736, 4.261136924216889, 0.487079736;,
		-0.487079736, 4.348110011960889, 0.487079736;,
		-0.487079736, 4.348110011960889, -0.487079736;,
		-0.487079736, 4.261136924216889, -0.487079736;,
		0.487079736, 4.261136924216889, 0.487079736;,
		0.487079736, 4.261136924216889, -0.487079736;,
		0.487079736, 4.348110011960889, -0.487079736;,
		0.487079736, 4.348110011960889, 0.487079736;,
		0.487079736, 4.261136924216889, -0.487079736;,
		-0.487079736, 4.261136924216889, -0.487079736;,
		-0.487079736, 4.348110011960889, -0.487079736;,
		0.487079736, 4.348110011960889, -0.487079736;,
		-0.487079736, 4.348110011960889, 0.487079736;,
		0.487079736, 4.348110011960889, 0.487079736;,
		0.487079736, 4.348110011960889, -0.487079736;,
		-0.487079736, 4.348110011960889, -0.487079736;;

		30;
		4;0, 1, 2, 3 ;,
		4;4, 5, 6, 7 ;,
		4;8, 9, 10, 11 ;,
		4;12, 13, 14, 15 ;,
		4;16, 17, 18, 19 ;,
		4;20, 21, 22, 23 ;,
		4;24, 25, 26, 27 ;,
		4;28, 29, 30, 31 ;,
		4;32, 33, 34, 35 ;,
		4;36, 37, 38, 39 ;,
		4;40, 41, 42, 43 ;,
		4;44, 45, 46, 47 ;,
		4;48, 49, 50, 51 ;,
		4;52, 53, 54, 55 ;,
		4;56, 57, 58, 59 ;,
		4;60, 61, 62, 63 ;,
		4;64, 65, 66, 67 ;,
		4;68, 69, 70, 71 ;,
		4;72, 73, 74, 75 ;,
		4;76, 77, 78, 79 ;,
		4;80, 81, 82, 83 ;,
		4;84, 85, 86, 87 ;,
		4;88, 89, 90, 91 ;,
		4;92, 93, 94, 95 ;,
		4;96, 97, 98, 99 ;,
		4;100, 101, 102, 103 ;,
		4;104, 105, 106, 107 ;,
		4;108, 109, 110, 111 ;,
		4;112, 113, 114, 115 ;,
		4;116, 117, 118, 119 ;;

		MeshNormals {
			120;		-0.5773502691896258, -0.5773502691896258, 0.5773502691896258;,
		-0.5575286451006052, 0.6150801734607991, 0.5575286451006052;,
		-0.5575286451006052, 0.6150801734607991, -0.5575286451006052;,
		-0.5773502691896258, -0.5773502691896258, -0.5773502691896258;,
		-0.5773502691896258, -0.5773502691896258, 0.5773502691896258;,
		0.5773502691896258, -0.5773502691896258, 0.5773502691896258;,
		0.5575286451006052, 0.6150801734607991, 0.5575286451006052;,
		-0.5575286451006052, 0.6150801734607991, 0.5575286451006052;,
		-0.5773502691896258, -0.5773502691896258, 0.5773502691896258;,
		-0.5773502691896258, -0.5773502691896258, -0.5773502691896258;,
		0.5773502691896258, -0.5773502691896258, -0.5773502691896258;,
		0.5773502691896258, -0.5773502691896258, 0.5773502691896258;,
		-0.5575286451006052, 0.6150801734607991, 0.5575286451006052;,
		0.5575286451006052, 0.6150801734607991, 0.5575286451006052;,
		0.5575286451006052, 0.6150801734607991, 0.5575286451006052;,
		-0.5575286451006052, 0.6150801734607991, 0.5575286451006052;,
		-0.5575286451006052, 0.6150801734607991, 0.5575286451006052;,
		-0.5575286451006052, 0.6150801734607991, 0.5575286451006052;,
		-0.5575286451006052, 0.6150801734607991, -0.5575286451006052;,
		-0.5575286451006052, 0.6150801734607991, -0.5575286451006052;,
		0.5575286451006052, 0.6150801734607991, 0.5575286451006052;,
		0.5773502691896258, -0.5773502691896258, 0.5773502691896258;,
		0.5773502691896258, -0.5773502691896258, -0.5773502691896258;,
		0.5575286451006052, 0.6150801734607991, -0.5575286451006052;,
		0.5575286451006052, 0.6150801734607991, 0.5575286451006052;,
		0.5575286451006052, 0.6150801734607991, -0.5575286451006052;,
		0.5575286451006052, 0.6150801734607991, -0.5575286451006052;,
		0.5575286451006052, 0.6150801734607991, 0.5575286451006052;,
		-0.5773502691896258, -0.5773502691896258, -0.5773502691896258;,
		-0.5575286451006052, 0.6150801734607991, -0.5575286451006052;,
		0.5575286451006052, 0.6150801734607991, -0.5575286451006052;,
		0.5773502691896258, -0.5773502691896258, -0.5773502691896258;,
		-0.5575286451006052, 0.6150801734607991, -0.5575286451006052;,
		-0.5575286451006052, 0.6150801734607991, -0.5575286451006052;,
		0.5575286451006052, 0.6150801734607991, -0.5575286451006052;,
		0.5575286451006052, 0.6150801734607991, -0.5575286451006052;,
		-0.5575286451006052, 0.6150801734607991, 0.5575286451006052;,
		0.5575286451006052, 0.6150801734607991, 0.5575286451006052;,
		0.4082482904638631, 0.8164965809277261, 0.4082482904638631;,
		-0.4082482904638631, 0.8164965809277261, 0.4082482904638631;,
		-0.5575286451006052, 0.6150801734607991, 0.5575286451006052;,
		-0.4082482904638631, 0.8164965809277261, 0.4082482904638631;,
		-0.4082482904638631, 0.8164965809277261, -0.4082482904638631;,
		-0.5575286451006052, 0.6150801734607991, -0.5575286451006052;,
		0.5575286451006052, 0.6150801734607991, 0.5575286451006052;,
		0.5575286451006052, 0.6150801734607991, -0.5575286451006052;,
		0.4082482904638631, 0.8164965809277261, -0.4082482904638631;,
		0.4082482904638631, 0.8164965809277261, 0.4082482904638631;,
		0.5575286451006052, 0.6150801734607991, -0.5575286451006052;,
		-0.5575286451006052, 0.6150801734607991, -0.5575286451006052;,
		-0.4082482904638631, 0.8164965809277261, -0.4082482904638631;,
		0.4082482904638631, 0.8164965809277261, -0.4082482904638631;,
		-0.4082482904638631, 0.8164965809277261, 0.4082482904638631;,
		0.4082482904638631, 0.8164965809277261, 0.4082482904638631;,
		0.4082482904638631, 0.8164965809277261, 0.4082482904638631;,
		-0.4082482904638631, 0.8164965809277261, 0.4082482904638631;,
		-0.4082482904638631, 0.8164965809277261, 0.4082482904638631;,
		-0.4082482904638631, 0.8164965809277261, 0.4082482904638631;,
		-0.4082482904638631, 0.8164965809277261, -0.4082482904638631;,
		-0.4082482904638631, 0.8164965809277261, -0.4082482904638631;,
		0.4082482904638631, 0.8164965809277261, 0.4082482904638631;,
		0.4082482904638631, 0.8164965809277261, -0.4082482904638631;,
		0.4082482904638631, 0.8164965809277261, -0.4082482904638631;,
		0.4082482904638631, 0.8164965809277261, 0.4082482904638631;,
		0.4082482904638631, 0.8164965809277261, -0.4082482904638631;,
		-0.4082482904638631, 0.8164965809277261, -0.4082482904638631;,
		-0.4082482904638631, 0.8164965809277261, -0.4082482904638631;,
		0.4082482904638631, 0.8164965809277261, -0.4082482904638631;,
		-0.4082482904638631, 0.8164965809277261, 0.4082482904638631;,
		0.4082482904638631, 0.8164965809277261, 0.4082482904638631;,
		0.4082482904638631, 0.8164965809277261, 0.4082482904638631;,
		-0.4082482904638631, 0.8164965809277261, 0.4082482904638631;,
		-0.4082482904638631, 0.8164965809277261, 0.4082482904638631;,
		-0.4082482904638631, 0.8164965809277261, 0.4082482904638631;,
		-0.4082482904638631, 0.8164965809277261, -0.4082482904638631;,
		-0.4082482904638631, 0.8164965809277261, -0.4082482904638631;,
		0.4082482904638631, 0.8164965809277261, 0.4082482904638631;,
		0.4082482904638631, 0.8164965809277261, -0.4082482904638631;,
		0.4082482904638631, 0.8164965809277261, -0.4082482904638631;,
		0.4082482904638631, 0.8164965809277261, 0.4082482904638631;,
		0.4082482904638631, 0.8164965809277261, -0.4082482904638631;,
		-0.4082482904638631, 0.8164965809277261, -0.4082482904638631;,
		-0.4082482904638631, 0.8164965809277261, -0.4082482904638631;,
		0.4082482904638631, 0.8164965809277261, -0.4082482904638631;,
		-0.4082482904638631, 0.8164965809277261, 0.4082482904638631;,
		0.4082482904638631, 0.8164965809277261, 0.4082482904638631;,
		0.4082482904638631, 0.8164965809277261, 0.4082482904638631;,
		-0.4082482904638631, 0.8164965809277261, 0.4082482904638631;,
		-0.4082482904638631, 0.8164965809277261, 0.4082482904638631;,
		-0.4082482904638631, 0.8164965809277261, 0.4082482904638631;,
		-0.4082482904638631, 0.8164965809277261, -0.4082482904638631;,
		-0.4082482904638631, 0.8164965809277261, -0.4082482904638631;,
		0.4082482904638631, 0.8164965809277261, 0.4082482904638631;,
		0.4082482904638631, 0.8164965809277261, -0.4082482904638631;,
		0.4082482904638631, 0.8164965809277261, -0.4082482904638631;,
		0.4082482904638631, 0.8164965809277261, 0.4082482904638631;,
		0.4082482904638631, 0.8164965809277261, -0.4082482904638631;,
		-0.4082482904638631, 0.8164965809277261, -0.4082482904638631;,
		-0.4082482904638631, 0.8164965809277261, -0.4082482904638631;,
		0.4082482904638631, 0.8164965809277261, -0.4082482904638631;,
		-0.4082482904638631, 0.8164965809277261, 0.4082482904638631;,
		0.4082482904638631, 0.8164965809277261, 0.4082482904638631;,
		0.5773502691896258, 0.5773502691896258, 0.5773502691896258;,
		-0.5773502691896258, 0.5773502691896258, 0.5773502691896258;,
		-0.4082482904638631, 0.8164965809277261, 0.4082482904638631;,
		-0.5773502691896258, 0.5773502691896258, 0.5773502691896258;,
		-0.5773502691896258, 0.5773502691896258, -0.5773502691896258;,
		-0.4082482904638631, 0.8164965809277261, -0.4082482904638631;,
		0.4082482904638631, 0.8164965809277261, 0.4082482904638631;,
		0.4082482904638631, 0.8164965809277261, -0.4082482904638631;,
		0.5773502691896258, 0.5773502691896258, -0.5773502691896258;,
		0.5773502691896258, 0.5773502691896258, 0.5773502691896258;,
		0.4082482904638631, 0.8164965809277261, -0.4082482904638631;,
		-0.4082482904638631, 0.8164965809277261, -0.4082482904638631;,
		-0.5773502691896258, 0.5773502691896258, -0.5773502691896258;,
		0.5773502691896258, 0.5773502691896258, -0.5773502691896258;,
		-0.5773502691896258, 0.5773502691896258, 0.5773502691896258;,
		0.5773502691896258, 0.5773502691896258, 0.5773502691896258;,
		0.5773502691896258, 0.5773502691896258, -0.5773502691896258;,
		-0.5773502691896258, 0.5773502691896258, -0.5773502691896258;;
		30;
		4;0, 1, 2, 3 ;,
		4;4, 5, 6, 7 ;,
		4;8, 9, 10, 11 ;,
		4;12, 13, 14, 15 ;,
		4;16, 17, 18, 19 ;,
		4;20, 21, 22, 23 ;,
		4;24, 25, 26, 27 ;,
		4;28, 29, 30, 31 ;,
		4;32, 33, 34, 35 ;,
		4;36, 37, 38, 39 ;,
		4;40, 41, 42, 43 ;,
		4;44, 45, 46, 47 ;,
		4;48, 49, 50, 51 ;,
		4;52, 53, 54, 55 ;,
		4;56, 57, 58, 59 ;,
		4;60, 61, 62, 63 ;,
		4;64, 65, 66, 67 ;,
		4;68, 69, 70, 71 ;,
		4;72, 73, 74, 75 ;,
		4;76, 77, 78, 79 ;,
		4;80, 81, 82, 83 ;,
		4;84, 85, 86, 87 ;,
		4;88, 89, 90, 91 ;,
		4;92, 93, 94, 95 ;,
		4;96, 97, 98, 99 ;,
		4;100, 101, 102, 103 ;,
		4;104, 105, 106, 107 ;,
		4;108, 109, 110, 111 ;,
		4;112, 113, 114, 115 ;,
		4;116, 117, 118, 119 ;;
		}
		MeshTextureCoords {
		120;
		0.25, 1.0;,
		0.25000000000000006, 0.5201284823039999;,
		5.551115123125783e-17, 0.5201284823039998;,
		0.0, 1.0;,
		0.2500000000000001, 1.0;,
		0.5000000000000001, 1.0;,
		0.5000000000000001, 0.5201284823039998;,
		0.2500000000000001, 0.520128482304;,
		1.0000000000000002, 1.0;,
		1.0000000000000002, 0.7499999999999999;,
		0.7500000000000001, 0.75;,
		0.7500000000000001, 1.0;,
		0.29578888888888893, 0.5127618156373333;,
		0.5598232165967306, 0.5101349237727983;,
		0.5162491939007631, 0.46699226488965506;,
		0.3390085005424723, 0.4691100707551933;,
		0.29578888888888893, 0.5127618156373333;,
		0.3390085005424723, 0.4691100707551933;,
		0.33936291158485654, 0.2918570795910814;,
		0.295788888888889, 0.24871442070793826;,
		0.5, 0.520128482304;,
		0.5, 1.0;,
		0.75, 1.0;,
		0.75, 0.5201284823039998;,
		0.5598232165967306, 0.5101349237727983;,
		0.5598232165967307, 0.24608752884340324;,
		0.5166036049431474, 0.2897392737255431;,
		0.5162491939007631, 0.46699226488965506;,
		0.2500000000000001, 0.520128482304;,
		0.25, 0.04025696460799988;,
		0.0, 0.04025696460799977;,
		2.7755575615628914e-17, 0.5201284823039999;,
		0.295788888888889, 0.24871442070793826;,
		0.33936291158485654, 0.2918570795910814;,
		0.5166036049431474, 0.2897392737255431;,
		0.5598232165967307, 0.24608752884340324;,
		0.6036222222222225, 0.22803197328784752;,
		0.7771222222222226, 0.22803197328784752;,
		0.7771222222222226, 0.2147821669518475;,
		0.6036222222222225, 0.2147821669518475;,
		0.6036222222222225, 0.22803197328784752;,
		0.6036222222222225, 0.2147821669518475;,
		0.4301222222222223, 0.2147821669518475;,
		0.4301222222222223, 0.22803197328784752;,
		0.6036222222222225, 0.20153236061584745;,
		0.7771222222222226, 0.20153236061584745;,
		0.7771222222222226, 0.18828255427984741;,
		0.6036222222222225, 0.18828255427984741;,
		0.6036222222222225, 0.2147821669518475;,
		0.7771222222222226, 0.2147821669518475;,
		0.7771222222222226, 0.20153236061584745;,
		0.6036222222222225, 0.20153236061584745;,
		0.3323333333333334, 0.20149327806295836;,
		0.5058333333333318, 0.20149327806295858;,
		0.490044833333332, 0.1857047780629575;,
		0.3481218333333332, 0.1857047780629585;,
		0.3323333333333334, 0.20149327806295836;,
		0.3481218333333332, 0.1857047780629585;,
		0.3481218333333333, 0.0437817780629608;,
		0.3323333333333334, 0.027993278062959703;,
		0.5058333333333318, 0.20149327806295858;,
		0.505833333333332, 0.027993278062960036;,
		0.4900448333333322, 0.04378177806295991;,
		0.490044833333332, 0.1857047780629575;,
		0.505833333333332, 0.027993278062960036;,
		0.3323333333333334, 0.027993278062959703;,
		0.3481218333333333, 0.0437817780629608;,
		0.4900448333333322, 0.04378177806295991;,
		0.7771222222222225, 0.040244259047846453;,
		0.9190452222222223, 0.04024425904784634;,
		0.9190452222222223, 0.024956020967846326;,
		0.7771222222222225, 0.024956020967846437;,
		0.9190452222222223, 0.08610897328784639;,
		0.9190452222222223, 0.07082073520784637;,
		0.7771222222222225, 0.07082073520784626;,
		0.7771222222222225, 0.08610897328784628;,
		0.7771222222222225, 0.07082073520784649;,
		0.9190452222222223, 0.07082073520784637;,
		0.9190452222222223, 0.05553249712784636;,
		0.7771222222222225, 0.05553249712784647;,
		0.7771222222222225, 0.05553249712784636;,
		0.9190452222222223, 0.05553249712784636;,
		0.9190452222222223, 0.040244259047846453;,
		0.7771222222222225, 0.040244259047846453;,
		0.7771222222222225, 0.22803197328784752;,
		0.9190452222222235, 0.2280319732878474;,
		0.9089686892222234, 0.21795544028784808;,
		0.7871987552222227, 0.2179554402878474;,
		0.7771222222222225, 0.22803197328784752;,
		0.7871987552222227, 0.2179554402878474;,
		0.7871987552222226, 0.09618550628784595;,
		0.7771222222222226, 0.08610897328784661;,
		0.9190452222222235, 0.2280319732878474;,
		0.9190452222222235, 0.08610897328784639;,
		0.9089686892222233, 0.0961855062878465;,
		0.9089686892222234, 0.21795544028784808;,
		0.9190452222222235, 0.08610897328784639;,
		0.7771222222222226, 0.08610897328784661;,
		0.7871987552222226, 0.09618550628784595;,
		0.9089686892222233, 0.0961855062878465;,
		0.6036222222222224, 0.1774109183118473;,
		0.7253921562222229, 0.1774109183118473;,
		0.7253921562222229, 0.16653928234384718;,
		0.6036222222222224, 0.16653928234384718;,
		0.7253921562222229, 0.18828255427984741;,
		0.7253921562222229, 0.1774109183118474;,
		0.6036222222222225, 0.1774109183118473;,
		0.6036222222222225, 0.1882825542798473;,
		0.6036222222222224, 0.1556676463758473;,
		0.7253921562222229, 0.1556676463758473;,
		0.7253921562222229, 0.14479601040784718;,
		0.6036222222222224, 0.14479601040784718;,
		0.6036222222222224, 0.1665392823438473;,
		0.7253921562222229, 0.1665392823438473;,
		0.7253921562222229, 0.15566764637584718;,
		0.6036222222222224, 0.15566764637584718;,
		0.6036222222222225, 0.1447960104078473;,
		0.7253921562222225, 0.1447960104078473;,
		0.7253921562222224, 0.023026076407847262;,
		0.6036222222222225, 0.023026076407847262;;
		}
		MeshMaterialList {
			1;
			30;
			0;
			0;
			0;
			0;
			0;
			0;
			0;
			0;
			0;
			0;
			0;
			0;
			0;
			0;
			0;
			0;
			0;
			0;
			0;
			0;
			0;
			0;
			0;
			0;
			0;
			0;
			0;
			0;
			0;
			0;
			;
			{cube1_auv}
		}
	}}