xof 0303txt 0064
#Exported from Wings 3D 1.2
		Material cube1_auv {
			1.0; 1.0; 1.0; 1.0;;
		1.0;
			1.0; 1.0; 1.0;;
			0.0; 0.0; 0.0;;
			TextureFilename { "imgs/buildings/3_1.png"; }
		}
Frame cube1 {
	Mesh {
		24;
		-1.0, -4.192759751111111, 1.0;,
		-1.0, 4.720463543864889, 1.0;,
		-1.0, 4.720463543864889, -1.0;,
		-1.0, -4.192759751111111, -1.0;,
		-1.0, -4.192759751111111, 1.0;,
		1.0, -4.192759751111111, 1.0;,
		1.0, 3.245417528888889, 1.0;,
		-1.0, 4.720463543864889, 1.0;,
		-1.0, -4.192759751111111, 1.0;,
		-1.0, -4.192759751111111, -1.0;,
		1.0, -4.192759751111111, -1.0;,
		1.0, -4.192759751111111, 1.0;,
		-1.0, 4.720463543864889, 1.0;,
		1.0, 3.245417528888889, 1.0;,
		1.0, 3.245417528888889, -1.0;,
		-1.0, 4.720463543864889, -1.0;,
		1.0, 3.245417528888889, 1.0;,
		1.0, -4.192759751111111, 1.0;,
		1.0, -4.192759751111111, -1.0;,
		1.0, 3.245417528888889, -1.0;,
		-1.0, -4.192759751111111, -1.0;,
		-1.0, 4.720463543864889, -1.0;,
		1.0, 3.245417528888889, -1.0;,
		1.0, -4.192759751111111, -1.0;;

		6;
		4;0, 1, 2, 3 ;,
		4;4, 5, 6, 7 ;,
		4;8, 9, 10, 11 ;,
		4;12, 13, 14, 15 ;,
		4;16, 17, 18, 19 ;,
		4;20, 21, 22, 23 ;;

		MeshNormals {
			24;		-0.5773502691896258, -0.5773502691896258, 0.5773502691896258;,
		-0.30186778841594075, 0.5977214360056327, 0.742701099538861;,
		-0.30186778841594075, 0.5977214360056327, -0.742701099538861;,
		-0.5773502691896258, -0.5773502691896258, -0.5773502691896258;,
		-0.5773502691896258, -0.5773502691896258, 0.5773502691896258;,
		0.5773502691896258, -0.5773502691896258, 0.5773502691896258;,
		0.7787709207596699, 0.3933033707195872, 0.4887006359313923;,
		-0.30186778841594075, 0.5977214360056327, 0.742701099538861;,
		-0.5773502691896258, -0.5773502691896258, 0.5773502691896258;,
		-0.5773502691896258, -0.5773502691896258, -0.5773502691896258;,
		0.5773502691896258, -0.5773502691896258, -0.5773502691896258;,
		0.5773502691896258, -0.5773502691896258, 0.5773502691896258;,
		-0.30186778841594075, 0.5977214360056327, 0.742701099538861;,
		0.7787709207596699, 0.3933033707195872, 0.4887006359313923;,
		0.7787709207596699, 0.3933033707195872, -0.4887006359313923;,
		-0.30186778841594075, 0.5977214360056327, -0.742701099538861;,
		0.7787709207596699, 0.3933033707195872, 0.4887006359313923;,
		0.5773502691896258, -0.5773502691896258, 0.5773502691896258;,
		0.5773502691896258, -0.5773502691896258, -0.5773502691896258;,
		0.7787709207596699, 0.3933033707195872, -0.4887006359313923;,
		-0.5773502691896258, -0.5773502691896258, -0.5773502691896258;,
		-0.30186778841594075, 0.5977214360056327, -0.742701099538861;,
		0.7787709207596699, 0.3933033707195872, -0.4887006359313923;,
		0.5773502691896258, -0.5773502691896258, -0.5773502691896258;;
		6;
		4;0, 1, 2, 3 ;,
		4;4, 5, 6, 7 ;,
		4;8, 9, 10, 11 ;,
		4;12, 13, 14, 15 ;,
		4;16, 17, 18, 19 ;,
		4;20, 21, 22, 23 ;;
		}
		MeshTextureCoords {
		24;
		0.19074672758273042, 1.0;,
		0.19074672758273026, 0.14991591213458388;,
		0.0, 0.14991591213458388;,
		0.0, 0.9999999999999998;,
		0.38149345516546074, 1.0;,
		0.572240182748191, 1.0;,
		0.5722401827481909, 0.2905960123298934;,
		0.38149345516546074, 0.14991591213458388;,
		0.9537336379136518, 0.8092532724172696;,
		0.9537336379136518, 0.6185065448345394;,
		0.7629869103309215, 0.6185065448345395;,
		0.7629869103309215, 0.8092532724172696;,
		0.7629869103309215, 1.0;,
		1.0, 1.0;,
		1.0, 0.8092532724172697;,
		0.7629869103309215, 0.8092532724172697;,
		0.572240182748191, 0.2905960123298932;,
		0.5722401827481912, 1.0;,
		0.7629869103309216, 1.0;,
		0.7629869103309214, 0.2905960123298932;,
		0.3814934551654608, 1.0;,
		0.3814934551654607, 0.14991591213458388;,
		0.19074672758273042, 0.2905960123298932;,
		0.19074672758273048, 0.9999999999999998;;
		}
		MeshMaterialList {
			1;
			6;
			0;
			0;
			0;
			0;
			0;
			0;
			;
			{cube1_auv}
		}
	}}