xof 0303txt 0064
#Exported from Wings 3D 1.2
		Material tetrahedron1_auv {
			1.0; 1.0; 1.0; 1.0;;
		1.0;
			1.0; 1.0; 1.0;;
			0.0; 0.0; 0.0;;
			TextureFilename { "imgs/bonus/bomb.png"; }
		}
Frame tetrahedron1 {
	Mesh {
		12;
		0.0, 1.6308843301258569, 0.0;,
		0.0, -0.0021088317295950842, 1.1547005383792515;,
		1.0, -0.0021088317295950842, -0.5773502691896258;,
		0.0, 1.6308843301258569, 0.0;,
		-1.0, -0.0021088317295950842, -0.5773502691896258;,
		0.0, -0.0021088317295950842, 1.1547005383792515;,
		0.0, 1.6308843301258569, 0.0;,
		1.0, -0.0021088317295950842, -0.5773502691896258;,
		-1.0, -0.0021088317295950842, -0.5773502691896258;,
		0.0, -0.0021088317295950842, 1.1547005383792515;,
		-1.0, -0.0021088317295950842, -0.5773502691896258;,
		1.0, -0.0021088317295950842, -0.5773502691896258;;

		4;
		3;0, 1, 2 ;,
		3;3, 4, 5 ;,
		3;6, 7, 8 ;,
		3;9, 10, 11 ;;

		MeshNormals {
			12;		0.0, 1.0, -1.1102230246251565e-16;,
		0.0, -0.3333333333333335, 0.9428090415820634;,
		0.816496580927726, -0.33333333333333337, -0.4714045207910317;,
		0.0, 1.0, -1.1102230246251565e-16;,
		-0.816496580927726, -0.33333333333333337, -0.4714045207910317;,
		0.0, -0.3333333333333335, 0.9428090415820634;,
		0.0, 1.0, -1.1102230246251565e-16;,
		0.816496580927726, -0.33333333333333337, -0.4714045207910317;,
		-0.816496580927726, -0.33333333333333337, -0.4714045207910317;,
		0.0, -0.3333333333333335, 0.9428090415820634;,
		-0.816496580927726, -0.33333333333333337, -0.4714045207910317;,
		0.816496580927726, -0.33333333333333337, -0.4714045207910317;;
		4;
		3;0, 1, 2 ;,
		3;3, 4, 5 ;,
		3;6, 7, 8 ;,
		3;9, 10, 11 ;;
		}
		MeshTextureCoords {
		12;
		0.49796663812339786, 0.09483953664546241;,
		0.05352163753358703, 0.8648458513532743;,
		0.9425891674398928, 0.8647433550951348;,
		0.4995579431918212, 0.09388371260676553;,
		0.053592356100637686, 0.8630103461136279;,
		0.9426583529903759, 0.864664556994803;,
		0.4976233385231111, 0.09257088520562096;,
		0.053089570615884554, 0.8625259569009679;,
		0.942157106430337, 0.8625259569009682;,
		0.053496397280831734, 0.86136974620839;,
		0.9425585165916088, 0.8644731710605102;,
		0.5007151016968925, 0.09297107776888613;;
		}
		MeshMaterialList {
			1;
			4;
			0;
			0;
			0;
			0;
			;
			{tetrahedron1_auv}
		}
	}}